Division,WeightClassKg,Place,Name,Team,BodyweightKg,Best3SquatKg,Best3BenchKg,Best3DeadliftKg,TotalKg,Equipment,Event,Sex
Boys,51.71,1,Kais Cooper,Center,51.66,129.27,77.11,154.22,360.61,Single-ply,SBD,M
Boys,51.71,2,Victor Solis,Beckville,49.44,102.06,56.7,120.2,278.96,Single-ply,SBD,M
Boys,55.79,3,Daniel Palamaros,Center,51.8,81.65,68.04,113.4,263.08,Single-ply,SBD,M
Boys,55.79,4,Wesley Berry,Shelbyville,51.94,95.25,52.16,97.52,244.94,Single-ply,SBD,M
Boys,51.71,5,Ronderious Berry,Diboll,50.35,83.91,56.7,92.99,233.6,Single-ply,SBD,M
Boys,51.71,6,Michael Shaddock,Hemphill,51.71,79.38,47.63,102.06,229.06,Single-ply,SBD,M
Boys,51.71,7,Blake Parham,Mount Enterprise,43.73,70.31,29.48,70.31,170.1,Single-ply,SBD,M
Boys,59.87,1,Tyler West,Shelbyville,56.02,172.37,104.33,165.56,442.25,Single-ply,SBD,M
Boys,55.79,2,Auryan Parks,Hallsville,55.79,124.74,61.23,145.15,331.12,Single-ply,SBD,M
Boys,59.87,3,Brandon Torres,Timpson,55.97,113.4,79.38,136.08,328.85,Single-ply,SBD,M
Boys,59.87,4,Fred Torres,Timpson,55.93,122.47,52.16,145.15,319.78,Single-ply,SBD,M
Boys,55.79,5,Zack Baker,Hallsville,54.79,92.99,65.77,115.67,274.42,Single-ply,SBD,M
Boys,55.79,6,Parker Simmons,Atlanta,53.71,92.99,43.09,97.52,233.6,Single-ply,SBD,M
Boys,67.13,1,Jamie Hubbard,Center,60.06,104.33,68.04,154.22,326.59,Single-ply,SBD,M
Boys,59.87,2,Juan Macias,Center,59.65,127.01,61.23,117.93,306.17,Single-ply,SBD,M
Boys,59.87,3,Nick Bergt,Atlanta,57.33,92.99,52.16,113.4,258.55,Single-ply,SBD,M
Boys,59.87,4,Darrin Shedd,Shelbyville,59.42,88.45,52.16,113.4,254.01,Single-ply,SBD,M
Boys,67.13,1,Shaq Ingram,Center,67.09,183.7,90.72,183.7,458.13,Single-ply,SBD,M
Boys,67.13,2,Levi Roberts,Atlanta,66.41,165.56,104.33,163.29,433.18,Single-ply,SBD,M
Boys,67.13,3,Christian Allison,Carthage,66.77,161.03,99.79,151.95,412.77,Single-ply,SBD,M
Boys,67.13,4,Bob Dickerson,Huntington,63.23,131.54,81.65,190.51,403.7,Single-ply,SBD,M
Boys,67.13,5,Justin Johnson,Mount Enterprise,63.23,142.88,92.99,158.76,394.63,Single-ply,SBD,M
Boys,74.84,6,Preston Bozeman,Huntington,67.27,129.27,83.91,161.03,374.21,Single-ply,SBD,M
Boys,67.13,7,Aaron Shaddock,Hemphill,60.6,136.08,79.38,145.15,360.61,Single-ply,SBD,M
Boys,67.13,8,Jessie Rose,Shelbyville,64.14,108.86,86.18,142.88,337.93,Single-ply,SBD,M
Boys,67.13,9,Luke Simpson,Hemphill,62.51,115.67,79.38,140.61,335.66,Single-ply,SBD,M
Boys,74.84,10,Drew Lawson,Hallsville,67.36,113.4,79.38,124.74,317.51,Single-ply,SBD,M
Boys,67.13,11,Preston Ellis,Beckville,66.04,108.86,70.31,124.74,303.91,Single-ply,SBD,M
Boys,67.13,12,Donald Gordon,Hallsville,66.77,104.33,61.23,108.86,274.42,Single-ply,SBD,M
Boys,74.84,DQ,Brennan Burnett,Huntington,67.36,129.27,83.91,,,Single-ply,SBD,M
Boys,67.13,DQ,Dustin Mcculler,Hallsville,62.87,117.93,,,,Single-ply,SBD,M
Boys,67.13,DQ,Ty Cauley,Diboll,60.6,,,,,Single-ply,SBD,M
Boys,74.84,1,Dk Calloway,Carthage,70.31,226.8,113.4,204.12,544.31,Single-ply,SBD,M
Boys,74.84,2,Garrett Stanley,Center,74.34,208.65,106.59,215.46,530.7,Single-ply,SBD,M
Boys,74.84,3,Alvin Battle,Atlanta,74.12,204.12,117.93,199.58,521.63,Single-ply,SBD,M
Boys,74.84,4,Tanner Evett,Huntington,71.85,172.37,104.33,181.44,458.13,Single-ply,SBD,M
Boys,74.84,5,AJ Rose,Hallsville,74.75,154.22,131.54,170.1,455.86,Single-ply,SBD,M
Boys,74.84,6,Michael Garcia #8,Diboll,70.4,147.42,88.45,156.49,392.36,Single-ply,SBD,M
Boys,74.84,7,Kowaiski Blayze,Shelbyville,71.67,136.08,79.38,147.42,362.87,Single-ply,SBD,M
Boys,74.84,8,Carwright James,Shelbyville,71.21,136.08,77.11,142.88,356.07,Single-ply,SBD,M
Boys,74.84,9,Tavorian Pellum,Beckville,74.66,124.74,92.99,129.27,347,Single-ply,SBD,M
Boys,74.84,10,Jackson Jacob,Shelbyville,67.77,92.99,68.04,127.01,288.03,Single-ply,SBD,M
Boys,74.84,11,Brian Mendoza,Center,74.8,83.91,65.77,97.52,247.21,Single-ply,SBD,M
Boys,82.1,DQ,Adam Jones #5,Beckville,74.93,86.18,,,,Single-ply,SBD,M
Boys,82.1,1,Kj Garrett,Center,80.83,215.46,127.01,229.06,571.53,Single-ply,SBD,M
Boys,82.1,2,MacKenzie Dockens,Center,81.74,176.9,113.4,195.04,485.34,Single-ply,SBD,M
Boys,82.1,3,Derek McCuller,Hallsville,78.83,181.44,120.2,181.44,483.08,Single-ply,SBD,M
Boys,82.1,4,Javontay Brown,Carthage,81.74,158.76,108.86,188.24,455.86,Single-ply,SBD,M
Boys,89.81,5,Jared Capps,Huntington,82.19,142.88,88.45,174.63,405.97,Single-ply,SBD,M
Boys,82.1,6,Juan Gonzalez,Diboll,76.66,147.42,97.52,156.49,401.43,Single-ply,SBD,M
Boys,89.81,7,Brandon Ponce,Diboll,82.33,142.88,97.52,147.42,387.82,Single-ply,SBD,M
Boys,82.1,8,Joseph Juarez,Carthage,81.74,147.42,86.18,147.42,381.02,Single-ply,SBD,M
Boys,82.1,9,Santana Salvadore,Shelbyville,80.01,136.08,90.72,142.88,369.68,Single-ply,SBD,M
Boys,82.1,10,Harbison Lucas,Shelbyville,80.56,136.08,68.04,145.15,349.27,Single-ply,SBD,M
Boys,82.1,11,Foehner Cade,Shelbyville,77.29,113.4,72.57,136.08,322.05,Single-ply,SBD,M
Boys,82.1,DQ,Taylor Frost,Hallsville,79.65,158.76,,,,Single-ply,SBD,M
Boys,89.81,DQ,Dexter Ward,Hallsville,82.19,172.37,113.4,,,Single-ply,SBD,M
Boys,82.1,DQ,Stephen Rice,Huntington,78.83,,,,,Single-ply,SBD,M
Boys,89.81,1,Kiounis Williams,Center,88.59,226.8,122.47,240.4,589.67,Single-ply,SBD,M
Boys,89.81,2,Colton Brown,Shelbyville,86.68,226.8,108.86,210.92,546.58,Single-ply,SBD,M
Boys,89.81,3,Dillon Brown,Shelbyville,86.64,210.92,104.33,210.92,526.17,Single-ply,SBD,M
Boys,89.81,4,Dan Davis,Atlanta,88.45,185.97,113.4,208.65,508.02,Single-ply,SBD,M
Boys,89.81,5,Leo Rodriguez,Diboll,85.37,185.97,120.2,181.44,487.61,Single-ply,SBD,M
Boys,89.81,6,Clayton Bullock,Diboll,83.46,147.42,111.13,163.29,421.84,Single-ply,SBD,M
Boys,89.81,7,Tony Burns,Mount Enterprise,84.55,136.08,90.72,158.76,385.55,Single-ply,SBD,M
Boys,89.81,8,Keith Ferguson,Joaquin,86.18,133.81,102.06,142.88,378.75,Single-ply,SBD,M
Boys,89.81,9,Gustavo Loredo,Beckville,84.82,122.47,63.5,115.67,301.64,Single-ply,SBD,M
Boys,89.81,10,Oc Stroud,Shelbyville,83.01,81.65,65.77,117.93,265.35,Single-ply,SBD,M
Boys,89.81,DQ,Roderick Boyd,Hallsville,86.64,213.19,,,,Single-ply,SBD,M
Boys,99.79,DQ,Kal Metcalf,Shelbyville,89.95,167.83,,,,Single-ply,SBD,M
Boys,99.79,1,Derrick Thomas,Center,99.29,197.31,120.2,238.14,555.65,Single-ply,SBD,M
Boys,99.79,2,Chris Valencia,Shelbyville,92.9,217.72,106.59,217.72,542.04,Single-ply,SBD,M
Boys,99.79,3,Cole Davis #2,Atlanta,95.44,204.12,117.93,210.92,532.97,Single-ply,SBD,M
Boys,99.79,4,Deshanti Holloway,Atlanta,94.71,206.38,95.25,219.99,521.63,Single-ply,SBD,M
Boys,99.79,5,Tookie Neal,Atlanta,91.26,195.04,104.33,213.19,512.56,Single-ply,SBD,M
Boys,99.79,6,Dillon Husar,Carthage,98.61,176.9,102.06,185.97,464.93,Single-ply,SBD,M
Boys,99.79,7,Greg Miller,Hemphill,95.89,170.1,102.06,181.44,453.59,Single-ply,SBD,M
Boys,109.77,8,Kaelan Whitworth,Diboll,100.02,142.88,92.99,154.22,390.09,Single-ply,SBD,M
Boys,99.79,9,DeMarcus Hubert,Diboll,97.61,124.74,92.99,145.15,362.87,Single-ply,SBD,M
Boys,99.79,10,Matt Chandler,Center,96.52,113.4,68.04,113.4,294.84,Single-ply,SBD,M
Boys,99.79,DQ,Thomas Cheshire,Diboll,95.89,142.88,,,,Single-ply,SBD,M
Boys,124.74,1,Aaron Liker,Center,110,272.16,204.12,254.01,730.28,Single-ply,SBD,M
Boys,109.77,2,DeVincent Hoyt,Center,105.51,233.6,142.88,213.19,589.67,Single-ply,SBD,M
Boys,109.77,3,Tray King,Hallsville,102.69,226.8,127.01,217.72,571.53,Single-ply,SBD,M
Boys,109.77,4,Wildes Zach,Joaquin,106,210.92,115.67,195.04,521.63,Single-ply,SBD,M
Boys,109.77,5,Cade Clinton,Carthage,102.97,165.56,120.2,195.04,480.81,Single-ply,SBD,M
Boys,109.77,6,Branton Halcomb,Carthage,107.5,167.83,111.13,165.56,444.52,Single-ply,SBD,M
Boys,109.77,7,Nathan Boyter,Joaquin,102.97,151.95,111.13,156.49,419.57,Single-ply,SBD,M
Boys,109.77,8,Brandon Carlson,Carthage,106.14,145.15,77.11,140.61,362.87,Single-ply,SBD,M
Boys,109.77,9,Caleb Ninemire,Beckville,103.69,113.4,70.31,133.81,317.51,Single-ply,SBD,M
Boys,109.77,DQ,Garrett Harvey,Carthage,100.24,181.44,102.06,,,Single-ply,SBD,M
Boys,109.77,DQ,Dalton Wheless,Joaquin,105.69,151.95,,,,Single-ply,SBD,M
Boys,124.74,1,Joey Lenard,Atlanta,113.67,226.8,131.54,231.33,589.67,Single-ply,SBD,M
Boys,124.74,2,Shane Armstrong,Beckville,112.04,188.24,142.88,226.8,557.92,Single-ply,SBD,M
Boys,124.74,3,Jose Valejo,Center,119.43,208.65,111.13,210.92,530.7,Single-ply,SBD,M
Boys,124.74,4,Juan Rangel,Diboll,121.65,147.42,90.72,285.76,523.9,Single-ply,SBD,M
Boys,124.74,5,Fernando DeJesus,Diboll,117.39,210.92,113.4,179.17,503.49,Single-ply,SBD,M
Boys,124.74,6,Aaron Davis,Shelbyville,122.74,190.51,99.79,174.63,464.93,Single-ply,SBD,M
Boys,124.74,7,Ivan Lopez,Diboll,116.75,188.24,106.59,167.83,462.66,Single-ply,SBD,M
Boys,124.74,8,Spencer Shepherd,Diboll,117.03,188.24,90.72,142.88,421.84,Single-ply,SBD,M
Boys,124.74,9,Brown Cordrae,Joaquin,122.92,158.76,111.13,147.42,417.3,Single-ply,SBD,M
Boys,124.74,10,Carlton Hasten,Hallsville,113.76,165.56,83.91,145.15,394.63,Single-ply,SBD,M
Boys,124.74,11,Daniel Puente,Diboll,115.85,145.15,88.45,145.15,378.75,Single-ply,SBD,M
Boys,124.74,DQ,Luke Sampley,Huntington,117.66,154.22,,,,Single-ply,SBD,M
Boys,124.74+,1,Kason Willis,Atlanta,125.92,233.6,129.27,226.8,589.67,Single-ply,SBD,M
Boys,124.74+,2,Jared Lincoln,Atlanta,125.1,226.8,136.08,204.12,566.99,Single-ply,SBD,M
Boys,124.74+,3,Griffin Bankhead,Carthage,133.45,195.04,102.06,174.63,471.74,Single-ply,SBD,M
Boys,124.74+,4,Adrian Goodacre,Carthage,143.24,195.04,102.06,172.37,469.47,Single-ply,SBD,M
Boys,124.74+,5,Corey Hall,Hallsville,127.82,145.15,79.38,149.69,374.21,Single-ply,SBD,M
