Division,WeightClassKg,Place,Name,Team,BodyweightKg,Best3SquatKg,Best3BenchKg,Best3DeadliftKg,TotalKg,Equipment,Event,Sex
Boys,51.71,1,Justin Lindsey,Kennedale,50.8,158.76,97.52,154.22,410.5,Single-ply,SBD,M
Boys,51.71,2,Nick Brown,Everman,50.8,102.06,77.11,104.33,283.5,Single-ply,SBD,M
Boys,51.71,3,Cooper Macaulay,Everman,50.8,99.79,63.5,108.86,272.16,Single-ply,SBD,M
Boys,51.71,4,Charlie Newman,Aubrey,48.08,88.45,43.09,95.25,226.8,Single-ply,SBD,M
Boys,51.71,5,Noah Eikenhorst,Carrollton Creekview,43.54,74.84,47.63,79.38,201.85,Single-ply,SBD,M
Boys,55.79,1,Brady Macaulay,Everman,55.34,151.95,68.04,167.83,387.82,Single-ply,SBD,M
Boys,55.79,2,Anthony Nixon,Everman,55.79,117.93,58.97,156.49,333.39,Single-ply,SBD,M
Boys,55.79,3,Anthony Perez,Bridgeport,55.79,113.4,63.5,136.08,312.98,Single-ply,SBD,M
Boys,55.79,4,Angel Rico,Kennedale,53.52,108.86,65.77,133.81,308.44,Single-ply,SBD,M
Boys,59.87,1,Daylon Jackson,Everman,59.87,165.56,99.79,176.9,442.25,Single-ply,SBD,M
Boys,59.87,2,Edgar Aguirre,Everman,58.51,124.74,83.91,158.76,367.41,Single-ply,SBD,M
Boys,59.87,3,Evan Miller #3,Carrollton Creekview,56.7,108.86,63.5,120.2,292.57,Single-ply,SBD,M
Boys,59.87,4,Marc Vasquez,Aubrey,58.06,108.86,54.43,129.27,292.57,Single-ply,SBD,M
Boys,59.87,5,Darryn Brossett,Carrollton Ranchview,59.87,102.06,61.23,127.01,290.3,Single-ply,SBD,M
Boys,59.87,6,Stephen Garcia,Carrollton Creekview,57.15,106.59,56.7,120.2,283.5,Single-ply,SBD,M
Boys,67.13,1,Stephen Linares,Kennedale,66.68,204.12,108.86,201.85,514.83,Single-ply,SBD,M
Boys,67.13,2,Luis Ramírez,Aubrey,66.22,181.44,95.25,199.58,476.27,Single-ply,SBD,M
Boys,67.13,3,Louis Flores,Kennedale,64.86,158.76,83.91,185.97,428.64,Single-ply,SBD,M
Boys,67.13,4,Hayden Brock,Kennedale,67.13,170.1,79.38,170.1,419.57,Single-ply,SBD,M
Boys,67.13,5,Jason You,Carrollton Creekview,66.22,156.49,86.18,170.1,412.77,Single-ply,SBD,M
Boys,67.13,6,Spencer Neumann,Aubrey,66.22,147.42,92.99,172.37,412.77,Single-ply,SBD,M
Boys,67.13,7,Caleb Scott,Aubrey,63.05,149.69,90.72,167.83,408.23,Single-ply,SBD,M
Boys,67.13,8,Manuel Anzures,Carrollton Creekview,66.22,147.42,102.06,142.88,392.36,Single-ply,SBD,M
Boys,67.13,9,Dylan Tcheng,Carrollton Creekview,64.86,131.54,81.65,172.37,385.55,Single-ply,SBD,M
Boys,67.13,10,Bill Quigley,Kennedale,65.77,149.69,79.38,142.88,371.95,Single-ply,SBD,M
Boys,67.13,11,Isaiah Rodriguez,Bridgeport,63.96,151.95,72.57,145.15,369.68,Single-ply,SBD,M
Boys,67.13,12,Marquis Johnson,Everman,66.22,145.15,68.04,154.22,367.41,Single-ply,SBD,M
Boys,67.13,13,Tony Tijerina,Bridgeport,64.86,127.01,68.04,149.69,344.73,Single-ply,SBD,M
Boys,67.13,14,Gonzalo Gayton,Carrollton Creekview,64.41,120.2,74.84,136.08,331.12,Single-ply,SBD,M
Boys,74.84,1,Isaiah Washington,Everman,74.84,222.26,127.01,199.58,548.85,Single-ply,SBD,M
Boys,74.84,2,Shingi Maraire,Aubrey,73.03,199.58,88.45,197.31,485.34,Single-ply,SBD,M
Boys,74.84,3,Regi Lane,Bridgeport,71.21,142.88,79.38,174.63,396.89,Single-ply,SBD,M
Boys,74.84,4,Deymun Prado,Bridgeport,69.4,142.88,74.84,158.76,376.48,Single-ply,SBD,M
Boys,74.84,5,Jacob Winters,Kennedale,73.94,149.69,70.31,149.69,369.68,Single-ply,SBD,M
Boys,74.84,6,Olig Kirksey,Carrollton Creekview,71.21,111.13,81.65,163.29,356.07,Single-ply,SBD,M
Boys,74.84,7,Zach Culpepper,Kennedale,74.84,131.54,81.65,136.08,349.27,Single-ply,SBD,M
Boys,74.84,8,Josh Berman,Kennedale,69.4,111.13,79.38,136.08,326.59,Single-ply,SBD,M
Boys,74.84,9,Colby Cruz,Carrollton Creekview,73.03,97.52,68.04,120.2,285.76,Single-ply,SBD,M
Boys,74.84,DQ,Dillon McAlister,Bridgeport,72.57,208.65,102.06,,,Single-ply,SBD,M
Boys,82.1,1,Brian Aguilar,Everman,80.74,229.06,111.13,231.33,571.53,Single-ply,SBD,M
Boys,82.1,2,DeAndre Hawkins,Carrollton Ranchview,82.1,176.9,102.06,185.97,464.93,Single-ply,SBD,M
Boys,82.1,3,Darion Carter,Carrollton Ranchview,77.11,158.76,106.59,181.44,446.79,Single-ply,SBD,M
Boys,82.1,4,Victor Hernandez #7,Bridgeport,79.83,172.37,108.86,165.56,446.79,Single-ply,SBD,M
Boys,82.1,5,Tristan Myers,Carrollton Creekview,81.65,165.56,102.06,142.88,410.5,Single-ply,SBD,M
Boys,82.1,6,Owen Orozco,Carrollton Creekview,76.66,138.35,92.99,158.76,390.09,Single-ply,SBD,M
Boys,82.1,7,Bryson Britten,Aubrey,78.93,136.08,90.72,161.03,387.82,Single-ply,SBD,M
Boys,82.1,8,Donovan Bakare,Carrollton Creekview,79.38,142.88,74.84,156.49,374.21,Single-ply,SBD,M
Boys,82.1,9,Matthew Rankin,Bridgeport,79.38,145.15,74.84,151.95,371.95,Single-ply,SBD,M
Boys,82.1,10,Zach Douglas,Carrollton Ranchview,76.2,133.81,90.72,136.08,360.61,Single-ply,SBD,M
Boys,82.1,DQ,Diangelo Sandoval,Bridgeport,80.2,136.08,,,,Single-ply,SBD,M
Boys,89.81,1,Jaylon Parmes,Everman,87.54,267.62,120.2,254.01,641.83,Single-ply,SBD,M
Boys,89.81,2,James Worthy,Everman,85.28,238.14,127.01,229.06,594.21,Single-ply,SBD,M
Boys,89.81,3,Kevin Williams,Aubrey,89.81,219.99,140.61,222.26,582.87,Single-ply,SBD,M
Boys,89.81,4,Khaemon Edwards,Everman,86,235.87,120.2,219.99,576.06,Single-ply,SBD,M
Boys,89.81,5,Jaylon Sparks,Everman,88.9,204.12,129.27,195.04,528.44,Single-ply,SBD,M
Boys,89.81,6,William Landers,Kennedale,89.81,210.92,117.93,195.04,523.9,Single-ply,SBD,M
Boys,89.81,7,Ricardo Pena #2,Kennedale,89.81,219.99,124.74,179.17,523.9,Single-ply,SBD,M
Boys,89.81,8,Cash Latta,Carrollton Creekview,86.64,176.9,124.74,176.9,478.54,Single-ply,SBD,M
Boys,89.81,9,Jacob Slimp,Bridgeport,88,176.9,108.86,183.7,469.47,Single-ply,SBD,M
Boys,89.81,10,Derek Stevenson,Aubrey,88.9,163.29,99.79,181.44,444.52,Single-ply,SBD,M
Boys,89.81,11,Orlando Garcia,Carrollton Creekview,88.45,170.1,106.59,158.76,435.45,Single-ply,SBD,M
Boys,89.81,13,Jesse Diaz,Kennedale,89.81,136.08,86.18,172.37,394.63,Single-ply,SBD,M
Boys,89.81,14,Dylan Miranda,Kennedale,87.09,147.42,70.31,147.42,365.14,Single-ply,SBD,M
Boys,99.79,1,Colton Hall,Kennedale,99.7,256.28,140.61,240.4,637.3,Single-ply,SBD,M
Boys,99.79,2,Chance Pierce,Bridgeport,99.79,210.92,138.35,249.48,598.74,Single-ply,SBD,M
Boys,99.79,3,Ezekial Veal,Everman,98.43,229.06,127.01,206.38,562.45,Single-ply,SBD,M
Boys,99.79,4,Aaron Williams,Kennedale,99.79,213.19,122.47,226.8,562.45,Single-ply,SBD,M
Boys,99.79,5,Alexis Sanchez #2,Kennedale,92.53,210.92,131.54,163.29,505.76,Single-ply,SBD,M
Boys,99.79,6,Cruz Villegas,Everman,97.07,183.7,102.06,204.12,489.88,Single-ply,SBD,M
Boys,99.79,7,Ashton Welch,Everman,96.16,181.44,102.06,192.78,476.27,Single-ply,SBD,M
Boys,99.79,8,Demetri Hendrick,Bridgeport,94.35,181.44,102.06,183.7,467.2,Single-ply,SBD,M
Boys,99.79,9,Daniel Hernandez,Everman,96.16,183.7,97.52,183.7,464.93,Single-ply,SBD,M
Boys,99.79,10,Andres Castillo,Carrollton Creekview,94.35,149.69,95.25,206.38,451.32,Single-ply,SBD,M
Boys,99.79,11,Brandon Kiernan,Kennedale,91.17,154.22,117.93,172.37,444.52,Single-ply,SBD,M
Boys,99.79,12,Mikael Conn,Aubrey,99.79,176.9,88.45,174.63,439.98,Single-ply,SBD,M
Boys,99.79,12,Jayson Ginn,Carrollton Ranchview,89.99,161.03,97.52,167.83,426.38,Single-ply,SBD,M
Boys,99.79,13,Raul Macillas,Everman,96.62,61.23,54.43,124.74,240.4,Single-ply,SBD,M
Boys,109.77,1,Matt Naugle,Kennedale,106.59,249.48,145.15,226.8,621.42,Single-ply,SBD,M
Boys,109.77,2,Nathan Ellison,Aubrey,109.77,190.51,142.88,210.92,544.31,Single-ply,SBD,M
Boys,109.77,3,Tyron Rhone,Carrollton Creekview,102.51,192.78,127.01,210.92,530.7,Single-ply,SBD,M
Boys,109.77,4,Killiam Carper,Kennedale,105.23,181.44,97.52,163.29,442.25,Single-ply,SBD,M
Boys,124.74,1,Quincy Warren,Everman,117.93,256.28,149.69,254.01,659.98,Single-ply,SBD,M
Boys,124.74,2,Shawn Wheat,Bridgeport,122.02,249.48,158.76,235.87,644.1,Single-ply,SBD,M
Boys,124.74,3,Eric Stonechek,Bridgeport,122.92,213.19,136.08,204.12,553.38,Single-ply,SBD,M
Boys,124.74,4,Fred Reyna,Aubrey,111.13,226.8,115.67,208.65,551.11,Single-ply,SBD,M
Boys,124.74,5,Chris Serwanga,Kennedale,115.67,217.72,106.59,174.63,498.95,Single-ply,SBD,M
Boys,124.74,6,Cameron Officer,Carrollton Creekview,111.58,167.83,86.18,201.85,455.86,Single-ply,SBD,M
Boys,124.74,7,Dylan Morgan,Aubrey,115.67,167.83,99.79,158.76,426.38,Single-ply,SBD,M
Boys,124.74,8,Claudio Torres,Carrollton Ranchview,111.13,124.74,81.65,154.22,360.61,Single-ply,SBD,M
Boys,124.74,DQ,Hunter Coleman,Bridgeport,115.67,163.29,,,,Single-ply,SBD,M
Boys,124.74+,1,Gjemar Daniels,Kennedale,145.6,254.01,154.22,226.8,635.03,Single-ply,SBD,M
Boys,124.74+,2,Caleb Jennings,Bridgeport,144.7,226.8,154.22,226.8,607.81,Single-ply,SBD,M
Boys,124.74+,3,CJ Mendoza #2,Carrollton Ranchview,141.07,224.53,117.93,240.4,582.87,Single-ply,SBD,M
Boys,124.74+,4,Johnny Zielinski,Kennedale,126.23,242.67,131.54,183.7,557.92,Single-ply,SBD,M
Boys,124.74+,5,Max Hahn,Carrollton Ranchview,128.82,204.12,99.79,226.8,530.7,Single-ply,SBD,M
