Place,WeightClassKg,Sex,Name,CyrillicName,BirthDate,BodyweightKg,Best3SquatKg,Best3BenchKg,Best3DeadliftKg,TotalKg,Event,Equipment,Division
1,59,M,Danilo Volosyanko,Данило Волосянко,2004-07-19,52,90,72.5,100,262.5,SBD,Single-ply,Open
1,66,M,Vasil Oliynik,Василь Олійник,1994-01-15,66,270,155,240,665,SBD,Single-ply,Open
2,66,M,Volodimir Titenkov,Володимир Тітенков,1983-10-13,65.6,235,155,197.5,587.5,SBD,Single-ply,Open
DQ,66,M,Oleksandr Agadzhanyan,Олександр Агаджанян,1979-06-03,63.4,-200,90,75,,SBD,Single-ply,Open
1,74,M,Volodymyr Galkin,Володимир Галкін,1995-03-03,73.9,315,180,285,780,SBD,Single-ply,Open
2,74,M,Igor Timoftey,Ігор Тімофтей,1986-10-03,74,262.5,185,255,702.5,SBD,Single-ply,Open
3,74,M,Andriy Stepanov,Андрій Степанов,1992-02-08,73,272.5,162.5,240,675,SBD,Single-ply,Open
4,74,M,Ostap Ripka,Остап Ріпка,1997-02-16,74,260,140,220,620,SBD,Single-ply,Open
5,74,M,Oleksandr Babakov,Олександр Бабаков,1995-12-09,73.1,235,155,220,610,SBD,Single-ply,Open
DQ,74,M,Stanislav Chernichenko,Станіслав Черниченко,1991-01-16,74,-230,145,220,,SBD,Single-ply,Open
1,83,M,Vitaliy Kolomiets,Віталій Коломієць,1992-11-19,82.3,355,230,320,905,SBD,Single-ply,Open
2,83,M,Mykola Barannik,Микола Бараннік,1989-10-30,81.8,340,267.5,282.5,890,SBD,Single-ply,Open
3,83,M,Andriy Naniev,Андрій Наньєв,1984-12-03,82.9,360.5,240,285,885.5,SBD,Single-ply,Open
4,83,M,Vladislav Chornyi,Владислав Чорний,1997-05-12,77.5,350,205,305,860,SBD,Single-ply,Open
5,83,M,Vitaliy Fanta,Віталій Фанта,1982-10-22,83,265,155,265,685,SBD,Single-ply,Open
NS,83,M,Maksim Rozhnov,Максим Рожнов,1992-08-19,,,,,,SBD,Single-ply,Open
DQ,83,M,Ivan Korol,Іван Король,1993-06-17,82.6,-362.5,232.5,285,,SBD,Single-ply,Open
1,93,M,Volodymyr Rysiev,Володимир Рисєв,1982-03-30,88.5,370,280,340,990,SBD,Single-ply,Open
2,93,M,Kostiantyn Musiienko,Костянтин Мусієнко,1997-08-11,92.5,360,325,305,990,SBD,Single-ply,Open
3,93,M,Volodymyr Dubovoy,Володимир Дубовой,1990-02-04,91.9,340,215,265,820,SBD,Single-ply,Open
1,105,M,Sergii Bilyi,Сергій Білий,1990-02-27,104.3,420,305,360,1085,SBD,Single-ply,Open
2,105,M,Oleksandr Rubets,Олександр Рубець,1996-05-11,103.9,420,300,340,1060,SBD,Single-ply,Open
3,105,M,Evgeniy Beliy,Євгеній Белий,1989-09-11,93.6,300,185,310,795,SBD,Single-ply,Open
4,105,M,Igor Ivchenko,Ігор Івамченко,1989-03-24,103,290,202.5,260,752.5,SBD,Single-ply,Open
5,105,M,Oleksiy Sidorov,Олексій Сидоров,1990-10-26,100.7,237.5,165,265,667.5,SBD,Single-ply,Open
DQ,105,M,Vasil Gerts,Василь Герц,1996-07-13,99.3,-300,,,,SBD,Single-ply,Open
1,120,M,Danylo Kovalyov,Данило Ковальов,1996-01-24,109.2,390,315,322.5,1027.5,SBD,Single-ply,Open
2,120,M,Viktor Leskovets,Віктор Лесковець,1990-05-15,109.7,390,340,297.5,1027.5,SBD,Single-ply,Open
3,120,M,Oleksiy Bychkov,Олексій Бичков,1985-10-19,116.6,270,180,325,775,SBD,Single-ply,Open
1,120+,M,Andrii Shevchenko,Андрій Шевченко,1995-09-09,140.5,425,327.5,347.5,1100,SBD,Single-ply,Open
2,120+,M,Viktor Golinei,Віктор Голіней,2000-02-26,140,375,300,330,1005,SBD,Single-ply,Open
1,47,F,Mariia Polianska,Марія Полянська,1993-09-18,47,140,60,127.5,327.5,SBD,Single-ply,Open
2,47,F,Inna Kapkovska,Інна Капковська,1996-01-05,46.5,120,77.5,115,312.5,SBD,Single-ply,Open
1,52,F,Anastasiya Derevyanko #1,Анастасія Дерев'янко,1987-02-09,50.1,180,110,177.5,467.5,SBD,Single-ply,Open
2,52,F,Tetyana Shlopko,Тетяна Шлопко,1996-03-13,49.5,190,110,160,460,SBD,Single-ply,Open
3,52,F,Mariya Kozir,Марія Козир,2004-07-12,51.5,85,60,105,250,SBD,Single-ply,Open
1,57,F,Kateryna Klymenko,Катерина Клименко,1985-07-17,52.3,175,120,170,465,SBD,Single-ply,Open
2,57,F,Larysa Osychka,Лариса Осичка,1986-01-22,56.8,175,95,160,430,SBD,Single-ply,Open
3,57,F,Ganna Bezhevets,Ганна Бежевець,1995-03-23,56.6,167.5,92.5,142.5,402.5,SBD,Single-ply,Open
4,57,F,Darya Garnaga,Дарья Гарнага,1983-07-01,55.2,150,82.5,150,382.5,SBD,Single-ply,Open
5,57,F,Marina Shikina,Марина Шикіна,1980-11-12,56.6,152.5,90,140,382.5,SBD,Single-ply,Open
6,57,F,Mariya Bilous,Марія Білоус,2000-11-22,56.4,142.5,82.5,137.5,362.5,SBD,Single-ply,Open
1,63,F,Larysa Soloviova #1,Лариса Соловйова,1978-12-14,63,217.5,167.5,215,600,SBD,Single-ply,Open
2,63,F,Nataliya Gargunovska,Наталія Гаргуновська,1998-04-25,61.3,210,120,172.5,502.5,SBD,Single-ply,Open
3,63,F,Ivanna Kozyar,Іванна Козяр,1985-07-04,62.3,142.5,72.5,147.5,362.5,SBD,Single-ply,Open
4,63,F,Viktoriya Matveeva,Вікторія Матвєєва,1992-01-29,62.9,150,72.5,140,362.5,SBD,Single-ply,Open
1,72,F,Antonina Marchenko,Антоніна Марченко,1989-01-24,70.4,220,177.5,167.5,565,SBD,Single-ply,Open
2,72,F,Lyudmila Bichok,Людмила Бичок,1990-09-26,71.2,185,142.5,180,507.5,SBD,Single-ply,Open
3,72,F,Irina Kolesmikova,Ірина Колесмікова,1986-10-29,72,170,75,155,400,SBD,Single-ply,Open
DQ,72,F,Marina Kovalova,Марина Ковальова,1993-08-18,70.9,172.5,-92.5,170,,SBD,Single-ply,Open
1,84,F,Daria Rusanenko,Даря Русаненко,2001-04-06,74.1,225,135,165,525,SBD,Single-ply,Open
2,84,F,Nataliya Galka,Наталія Галка,1991-04-04,80.7,180,85,130,395,SBD,Single-ply,Open
3,84,F,Amina Meleshko,Аміна Мелешко,2004-10-11,73.8,85,52.5,100,237.5,SBD,Single-ply,Open
1,84+,F,Valentina Zagoruyko,Валентина Загоруйко,1992-07-24,90.5,245,140,202.5,587.5,SBD,Single-ply,Open
2,84+,F,Inna Orobets,Інна Оробець,1971-02-15,108.3,220,182.5,185,587.5,SBD,Single-ply,Open
