Place,Name,State,WeightClassKg,BodyweightKg,BirthDate,Age,Squat1Kg,Squat2Kg,Squat3Kg,Best3SquatKg,Bench1Kg,Bench2Kg,Bench3Kg,Best3BenchKg,Deadlift1Kg,Deadlift2Kg,Deadlift3Kg,Best3DeadliftKg,TotalKg,Event,Equipment,Sex,Division
1,Alejandra Guzman,CA,56,53.3,,22,100,112.5,122.5,122.5,47.5,52.5,55,55,105,115,127.5,127.5,305,SBD,Raw,F,Juniors 20-23
1,Lindsey Pierce,CA,75,73.3,,32,110,-115,122.5,122.5,57.5,60,65,65,132.5,142.5,147.5,147.5,335,SBD,Raw,F,Open
2,Catherine LaMantia,CA,75,69.4,,29,42.5,45,50,50,30,35,40,40,67.5,80,102.5,102.5,192.5,SBD,Raw,F,Open
1,Cristal Montes,CA,82.5,76,,25,105,115,125,125,52.5,-57.5,-57.5,52.5,122.5,132.5,145,145,322.5,SBD,Raw,F,Open
1,Alaina Mcgrath,CA,60,57.9,,35,92.5,-100,-100,92.5,50,55,57.5,57.5,112.5,120,125,125,275,SBD,Raw,F,Submasters 35-39
1,Ethan Broome,CA,75,74.3,2005-11-03,,120,-130,-132.5,120,-75,80,85,85,167.5,180,190,190,395,SBD,Raw,M,Juniors 16-17
1,Jesus Solano,CA,90,84.3,,22,192.5,210,227.5,227.5,127.5,132.5,135,135,-245,262.5,272.5,272.5,635,SBD,Raw,M,Juniors 20-23
1,Cesar Caoili,HI,100,98.9,,20,220,222.5,227.5,227.5,135,137.5,142.5,142.5,227.5,-240,240,240,610,SBD,Raw,M,Juniors 20-23
DQ,Victor Villanueva,CA,100,97.6,,20,167.5,182.5,-200,182.5,-122.5,-137.5,-137.5,,210,225,235,235,,SBD,Raw,M,Juniors 20-23
1,Fernando Lopez,CA,75,73.2,,21,170,185,-195,185,115,120,122.5,122.5,185,197.5,207.5,207.5,515,SBD,Raw,M,Open
1,Benjamin Cortes,CA,82.5,80.8,,24,182.5,192.5,197.5,197.5,127.5,130,132.5,132.5,217.5,232.5,242.5,242.5,572.5,SBD,Raw,M,Open
1,Eziekiel Sarabia,CA,90,86.5,,31,200,215,222.5,222.5,142.5,145,150,150,227.5,235,250,250,622.5,SBD,Raw,M,Open
DQ,Daniel Westra,CA,90,87.2,,25,-250,-250,-250,,122.5,130,-135,130,260,-272.5,272.5,272.5,,SBD,Raw,M,Open
1,Cesar Caoili,HI,100,98.9,,20,220,222.5,227.5,227.5,135,137.5,142.5,142.5,227.5,-240,240,240,610,SBD,Raw,M,Open
1,Saul Salinas,CA,125,120.6,,29,182.5,200,212.5,212.5,120,127.5,-137.5,127.5,212.5,227.5,235,235,575,SBD,Raw,M,Open
1,Benito Moran,CA,140+,162.2,,27,282.5,312.5,330,330,215,235,240,240,275,-307.5,317.5,317.5,887.5,SBD,Raw,M,Open
DQ,Brandon Byrd #1,TX,125,121.5,,35,-177.5,,,,,,,,,,,,,SBD,Raw,M,Submasters 35-39
1,James Minnock,CA,100,97.3,,55,185,195,205,205,115,120,127.5,127.5,185,192.5,205,205,537.5,SBD,Raw,M,Masters 55-59
1,Shannon Medina,CA,90,86.6,,44,105,-115,-115,105,55,-60,60,60,115,127.5,140,140,305,SBD,Wraps,F,Masters 40-44
1,Nickolas Mantle,CA,90,88.3,,24,202.5,215,-225,215,147.5,155,-162.5,155,225,232.5,240,240,610,SBD,Wraps,M,Open
1,Charles LaMantia,CA,110,101.5,,25,-192.5,192.5,210,210,127.5,140,152.5,152.5,192.5,,,192.5,555,SBD,Single-ply,M,Open
1,Tracie Marquez,CA,90,89.3,,58,,,,,60,65.5,-67.5,65.5,,,,,65.5,B,Raw,F,Masters 55-59
1,Eugene Ayala,CA,90,89.5,,46,,,,,-130,140,147.5,147.5,,,,,147.5,B,Raw,M,Open
1,Eric Banks #1,CA,140,136,,47,,,,,212.5,217.5,227.5,227.5,,,,,227.5,B,Raw,M,Open
1,Eugene Ayala,CA,90,89.5,,46,,,,,-130,140,147.5,147.5,,,,,147.5,B,Raw,M,Masters 45-49
1,Eric Banks #1,CA,140,136,,47,,,,,212.5,217.5,227.5,227.5,,,,,227.5,B,Raw,M,Masters 45-49
