Sex,WeightClassKg,EntryDate,Name,Country,BirthDate,BodyweightKg,Bench1Kg,Bench2Kg,Bench3Kg,Best3BenchKg,Bench4Kg,TotalKg,Event,Equipment,Division,Place
F,86,2013-11-07,Xuemei Deng,China,1981-11-24,82.32,100,111,-121,111,,111,B,Raw,Open,1
F,86,2013-11-07,Norfariza Mortadza,Malaysia,1989-11-05,79.5,70,-75,-75,70,,70,B,Raw,Open,2
F,86,2013-11-07,Catalina Diaz Vilchis,Mexico,1964-04-30,79.52,-110,-120,-125,,,,B,Raw,Open,DQ
F,86+,2013-11-07,Grace Ebere Anozie,Nigeria,1977-07-16,124.92,130,140,-143,140,,140,B,Raw,Open,1
F,86+,2013-11-07,Perla Patricia Bárcenas Ponce de León,Mexico,1971-05-13,96.46,90,100,115,115,,115,B,Raw,Open,2
F,86+,2013-11-07,Hyun Jung Lee,South Korea,1976-05-04,100.96,-100,105,111,111,,111,B,Raw,Open,3
F,86+,2013-11-07,Adeline Ancheta,Philippines,1973-12-13,107.96,-110,110,-112,110,,110,B,Raw,Open,4
F,86+,2013-11-07,Ghazala Masoud,Libya,1973-06-08,103.14,90,93,-95,93,,93,B,Raw,Open,5
M,49,2013-11-03,Yakubu Adesokan,Nigeria,1979-07-16,47,165,170,176,176,,176,B,Raw,Open,1
M,49,2013-11-03,Lê Văn Công,Vietnam,1984-06-20,47.6,162,168,175,175,,175,B,Raw,Open,2
M,49,2013-11-03,Omar Sami Hamadeh Qarada,Jordan,1981-03-01,42.66,160,167,-174,167,,167,B,Raw,Open,3
M,49,2013-11-03,Ahmed Narjsh,Iraq,1990-11-02,44.36,132,136,139,139,,139,B,Raw,Open,4
M,49,2013-11-03,Sandun Wasana Perera Batapola Mudalige,Sri Lanka,1969-09-02,48.06,-130,130,133,133,,133,B,Raw,Open,5
M,49,2013-11-03,Keun Jin Choi,South Korea,1976-11-13,46.92,130,-135,-135,130,,130,B,Raw,Open,6
M,49,2013-11-03,Abou Mughdeb Yahya,Syria,1979-09-13,48.22,115,120,-125,120,,120,B,Raw,Open,7
M,49,2013-11-03,Pope Gazave,Papua New Guinea,1976-06-12,40.4,-105,105,107,107,,107,B,Raw,Open,8
M,49,2013-11-03,David Sinda,Malaysia,1990-05-28,48.98,80,-82,,80,,80,B,Raw,Open,9
M,49,2013-11-03,Mohammad Karimi,Iran,1982-09-25,49,-151,-151,-151,,,,B,Raw,Open,DQ
M,49,2013-11-03,Yingguo Xiao,China,1987-12-03,47.66,-130,-133,-133,,,,B,Raw,Open,DQ
M,49,2013-11-03,Himal Aryal,Nepal,1980-01-20,,,,,,,,B,Raw,Open,DQ
M,54,2013-11-04,Binh An Nguyen,Vietnam,1985-01-28,53.54,163,168,170,170,,170,B,Raw,Open,1
M,54,2013-11-04,Samad Abbasi,Iran,1986-06-19,53.32,153,161,168,168,,168,B,Raw,Open,2
M,54,2013-11-04,Ikechukwu Christian Obichukwu,Nigeria,1993-02-03,53.44,-160,160,165,165,,165,B,Raw,Open,3
M,54,2013-11-04,Qi Feng,China,1991-02-24,53.86,150,161,163,163,,163,B,Raw,Open,4
M,54,2013-11-04,Jun Li,China,1986-11-12,53.7,142,150,155,155,,155,B,Raw,Open,5
M,54,2013-11-04,Esen Kaliev,Kazakhstan,1982-01-02,52.84,148,154,-161,154,,154,B,Raw,Open,6
M,54,2013-11-04,Ruslan Korchynskyi,Ukraine,1993-09-05,52.76,125,-135,-140,125,,125,B,Raw,Open,7
M,54,2013-11-04,Nang Nguyen,Australia,1985-02-10,52.74,115,120,-124,120,,120,B,Raw,Open,8
M,54,2013-11-04,Ziggy Satkurin,Papua New Guinea,1975-05-05,53.4,115,-120,-121,115,,115,B,Raw,Open,9
M,54,2013-11-04,Iskandar Tursunboev,Uzbekistan,1994-01-28,52.9,100,-110,-110,100,,100,B,Raw,Open,10
M,54,2013-11-04,Bahrom Kobilov,Uzbekistan,1993-12-29,52.9,70,-80,80,80,,80,B,Raw,Open,11
M,59,2013-11-04,Ali Jawad,UK,1989-01-12,58.24,180,185,-186,185,186,185,B,Raw,Open,1
M,59,2013-11-04,Anthony Azunna Ulonnam,Nigeria,1993-04-10,58.48,180,185,-188,185,,185,B,Raw,Open,2
M,59,2013-11-04,Hamzeh Mohammadi,Iran,1978-04-13,58.66,176,181,-186,181,,181,B,Raw,Open,3
M,59,2013-11-04,Amir Jafari Arangeh,Iran,1985-12-22,58.36,166,172,180,180,,180,B,Raw,Open,4
M,59,2013-11-04,Xuefeng Lu,China,1970-04-20,58.7,172,176,-182,176,,176,B,Raw,Open,5
M,59,2013-11-04,Quanxi Yang,China,1982-03-04,58.76,166,176,-181,176,,176,B,Raw,Open,6
M,59,2013-11-04,Mohammad Tarbash,Jordan,1984-06-09,57.14,160,166,-170,166,,166,B,Raw,Open,7
M,59,2013-11-04,Abebe Assefa Fekadu,Australia,1970-04-20,58.48,160,-165,166,166,,166,B,Raw,Open,8
M,59,2013-11-04,Issa Shadi,Syria,1986-06-04,58.24,160,-165,-165,160,,160,B,Raw,Open,9
M,59,2013-11-04,Agustin Kitan,Philippines,1976-08-06,58.66,145,155,-160,155,,155,B,Raw,Open,10
M,59,2013-11-04,Mohamed El Maataoui,,1975-04-08,57.8,128,135,-140,135,,135,B,Raw,Open,11
M,59,2013-11-04,Vittorio Maria Zaccaro,Italy,1993-05-05,57.16,112,120,122,122,,122,B,Raw,Open,12
M,59,2013-11-04,Roman Stepanov,Kazakhstan,1979-03-04,58.52,100,110,-120,110,,110,B,Raw,Open,13
M,59,2013-11-04,Kazuhiko Yamada,Japan,1954-01-01,56.46,90,-94,-97,90,,90,B,Raw,Open,14
M,65,2013-11-05,Rasool Mohsin,Iraq,1987-11-17,64.46,200,205,210,210,,210,B,Raw,Open,1
M,65,2013-11-05,Shaban Yehia Ibrahim,Egypt,1975-09-14,63.58,180,185,191,191,,191,B,Raw,Open,2
M,65,2013-11-05,Lei Liu,China,1987-11-16,64.68,180,-201,,180,,180,B,Raw,Open,3
M,65,2013-11-05,Faisal Mustafa Ahmad Hammash,Jordan,1977-05-06,64.9,162,167,-170,167,,167,B,Raw,Open,4
M,65,2013-11-05,Ahmad Razm Azar,Azerbaijan,1992-03-02,60.28,140,147,153,153,,153,B,Raw,Open,5
M,65,2013-11-05,Oleksii Petrychenko,Ukraine,1988-07-17,64.62,140,147,150,150,,150,B,Raw,Open,6
M,65,2013-11-05,Aibek Abzhan,Kazakhstan,1992-07-03,62.68,125,130,-135,130,,130,B,Raw,Open,7
M,65,2013-11-05,Mohammad Alkarajeh,Jordan,1992-02-12,64,110,120,127,127,,127,B,Raw,Open,8
M,65,2013-11-05,Jin Gon Ser,South Korea,1961-04-25,64.3,115,120,125,125,,125,B,Raw,Open,9
M,65,2013-11-05,Takashi Jo,Japan,1960-01-27,63.24,-120,-120,120,120,,120,B,Raw,Open,10
M,65,2013-11-05,Farkhod Umirzakov,Uzbekistan,1996-05-16,64.06,95,-100,-100,95,,95,B,Raw,Open,11
M,65,2013-11-05,Saad Tayib,Libya,1995-11-02,64.2,90,-95,95,95,,95,B,Raw,Open,12
M,65,2013-11-05,Hazrin Che Hassan,Malaysia,1989-01-22,64,80,85,92,92,,92,B,Raw,Open,13
M,65,2013-11-05,Jitinder Singh Brar,India,1986-04-22,63.42,-128,-128,-128,,,,B,Raw,Open,DQ
M,72,2013-11-05,Roohallah Rostami,Iran,1989-05-02,67.2,211,220,-227,220,-227,220,B,Raw,Open,1
M,72,2013-11-05,Peng Hu,China,1989-05-26,70.72,180,190,195,195,,195,B,Raw,Open,2
M,72,2013-11-05,Rajinder Singh Rahelu,India,1986-03-04,71.48,180,183,188,188,,188,B,Raw,Open,3
M,72,2013-11-05,Abdelkareem Mohmmad Ahmad Khattab,Jordan,1991-09-04,70.48,175,182,187,187,,187,B,Raw,Open,4
M,72,2013-11-05,Michael Yule,UK,1978-12-24,67.12,178,184,186,186,,186,B,Raw,Open,5
M,72,2013-11-05,Tolulope Owolabi Taiwa,Nigeria,1986-04-09,71.2,-180,180,-186,180,,180,B,Raw,Open,6
M,72,2013-11-05,Angriwan,India,1983-08-20,69.68,150,-156,157,157,,157,B,Raw,Open,7
M,72,2013-11-05,Rakhmetzhan Khamayev,Kazakhstan,1986-11-25,70.78,145,150,157,157,,157,B,Raw,Open,8
M,72,2013-11-05,Ma Hussein Mat Noh,Malaysia,1980-08-05,67.5,135,-142,142,142,,142,B,Raw,Open,9
M,72,2013-11-05,Zhyrgalebek Balbakov,Kazakhstan,1980-07-27,71.26,140,-146,-146,140,,140,B,Raw,Open,10
M,72,2013-11-05,Mosaab Gharsalla,Libya,1990-04-27,70.42,135,137,-142,137,,137,B,Raw,Open,11
M,72,2013-11-05,Adel Shanbih,UAE,1989-12-13,71.7,126,-132,-132,126,,126,B,Raw,Open,12
M,72,2013-11-05,Jayasinha Rathnayaka Mudiyanselage,Sri Lanka,1983-04-22,71.98,-125,125,-130,125,,125,B,Raw,Open,13
M,72,2013-11-05,Bader Al Tamtami,Oman,1980-12-31,71.06,97,-102,-105,97,,97,B,Raw,Open,14
M,72,2013-11-05,Motoya Uchida,Japan,1968-09-26,69.64,-90,90,-100,90,,90,B,Raw,Open,15
M,72,2013-11-05,Yoshiki Sano,Japan,1968-09-06,,,,,,,,B,Raw,Open,DQ
M,80,2013-11-06,Xiao-Fei Gu,China,1989-03-14,78.26,216,226,231,231,,231,B,Raw,Open,1
M,80,2013-11-06,Metwaly Ibrahim Mathna,Egypt,1974-11-30,79.86,-210,210,230,230,,230,B,Raw,Open,2
M,80,2013-11-06,Mu'taz Zakaria Daoud Al Juneidi,Jordan,1976-04-02,79.64,-220,220,-229,220,,220,B,Raw,Open,3
M,80,2013-11-06,Seyed Hamed Solhipour Avanji,Iran,1989-05-22,79,212,-220,-227,212,,212,B,Raw,Open,4
M,80,2013-11-06,Boby Santos,India,1986-10-08,75.42,185,-195,195,195,,195,B,Raw,Open,5
M,80,2013-11-06,Jibrin Malau,Nigeria,1986-06-03,77.88,180,187,192,192,,192,B,Raw,Open,6
M,80,2013-11-06,Porforio Arredondo Luna,Mexico,1971-09-15,78.56,180,-190,-200,180,,180,B,Raw,Open,7
M,80,2013-11-06,Timothy Harabe,Papua New Guinea,1976-04-13,80,165,171,-177,171,,171,B,Raw,Open,8
M,80,2013-11-06,Oleg Gridassov,Kazakhstan,1980-08-14,77.46,155,165,-172,165,,165,B,Raw,Open,9
M,80,2013-11-06,Nabil Joneidi,UAE,1981-01-21,76.54,150,158,-164,158,,158,B,Raw,Open,10
M,80,2013-11-06,Mohd Yuspi Mat Dali,Malaysia,1976-09-02,72.12,147,152,-155,152,,152,B,Raw,Open,11
M,80,2013-11-06,Abdel Baset Shita,Libya,1968-02-16,77.42,-150,150,152,152,,152,B,Raw,Open,12
M,80,2013-11-06,Khalid Al Balushi,Oman,1970-01-11,78,145,-155,-155,145,,145,B,Raw,Open,13
M,80,2013-11-06,Joginder Singh,India,1986-03-04,76.86,-140,140,-151,140,,140,B,Raw,Open,14
M,80,2013-11-06,Abdalla Alnaqbi,UAE,1991-07-01,78.26,135,140,-147,140,,140,B,Raw,Open,15
M,80,2013-11-06,Yegor Bolinger,Kazakhstan,1994-04-07,78.5,115,121,126,126,,126,B,Raw,Open,16
M,80,2013-11-06,Nicodamus Manggoi Moses,Malaysia,1992-12-05,77.7,-120,122,-126,122,,122,B,Raw,Open,17
M,80,2013-11-06,Mansour Hilan,Libya,1969-01-01,76.82,-115,120,-125,120,,120,B,Raw,Open,18
M,80,2013-11-06,Jeroen Velthuis,Netherlands,1967-07-08,78.54,108,113,-116,113,,113,B,Raw,Open,19
M,80,2013-11-06,Varinder Singh,India,1987-01-13,79.3,-170,-170,-172,,,,B,Raw,Open,DQ
M,88,2013-11-06,Hany Mohsen Mohamed Abdelhady,Egypt,1980-05-19,86.42,210,220,,220,,220,B,Raw,Open,1
M,88,2013-11-06,Huichao Cai,China,1983-10-22,87.58,180,200,-205,200,,200,B,Raw,Open,2
M,88,2013-11-06,Opeyemi Bambo Jegede,Nigeria,1983-07-01,84.08,190,196,199,199,,199,B,Raw,Open,3
M,88,2013-11-06,Saman Razi,Iran,1986-03-24,85.36,184,192,194,194,,194,B,Raw,Open,4
M,88,2013-11-06,Kwang Hyuk Park,South Korea,1969-04-05,85.3,180,185,193,193,,193,B,Raw,Open,5
M,88,2013-11-06,Hideki Odo,Japan,1974-10-17,80.24,183,191,-196,191,,191,B,Raw,Open,6
M,88,2013-11-06,Sodnompiljee Enkhabayar,Mongolia,1985-08-24,81.04,175,185,191,191,,191,B,Raw,Open,7
M,88,2013-11-06,Yurii Kupriianov,Ukraine,1982-08-28,86.36,180,-189,189,189,,189,B,Raw,Open,8
M,88,2013-11-06,Anto Boy,India,1974-07-03,82.82,185,-195,-197,185,,185,B,Raw,Open,9
M,88,2013-11-06,Abdelrazik Baaba,Libya,1974-01-01,83.32,167,170,-172,170,,170,B,Raw,Open,10
M,88,2013-11-06,Nurul Azhar Nurrin,Malaysia,1980-06-21,84.18,168,-173,-175,168,,168,B,Raw,Open,11
M,88,2013-11-06,Rashed Ahmed,UAE,1980-10-10,80.96,-155,155,162,162,,162,B,Raw,Open,12
M,88,2013-11-06,Ben Wright #2,Australia,1987-04-23,85.14,147,152,157,157,,157,B,Raw,Open,13
M,88,2013-11-06,Nobuhiro Saito,Japan,1967-04-10,81.78,-142,142,-150,142,,142,B,Raw,Open,14
M,88,2013-11-06,Navruzbek Abdurasulov,Uzbekistan,1992-04-02,80.54,110,-120,-120,110,,110,B,Raw,Open,15
M,88,2013-11-06,Abdullatif Alzidjali,Oman,1980-02-22,81.46,100,-105,-105,100,,100,B,Raw,Open,16
M,97,2013-11-06,Abdulazeez Ibrahim,Nigeria,1978-08-10,95.12,217,225,228,228,,228,B,Raw,Open,1
M,97,2013-11-06,Ali Sadeghzadeh Salmani,Iran,1978-11-30,96.32,217,222,224,224,,224,B,Raw,Open,2
M,97,2013-11-06,Mohammed Khalaf,UAE,1969-02-23,94.92,210,215,223,223,,223,B,Raw,Open,3
M,97,2013-11-06,Dong Qi,China,1981-11-24,94.78,185,200,211,211,,211,B,Raw,Open,4
M,97,2013-11-06,Jose Castillo #3,Mexico,1984-08-24,93.96,210,-220,-227,210,,210,B,Raw,Open,5
M,97,2013-11-06,Hero Paryono,India,1978-07-23,93.88,-180,-185,185,185,,185,B,Raw,Open,6
M,97,2013-11-06,Yie Kie Jong,Malaysia,1988-11-19,96.88,162,-175,185,185,,185,B,Raw,Open,7
M,97,2013-11-06,Zhyrgalebek Orozbaev,Kazakhstan,1993-07-19,96.46,-170,-170,170,170,,170,B,Raw,Open,8
M,97,2013-11-06,Yong Won Na,South Korea,1976-05-12,94.56,130,135,140,140,,140,B,Raw,Open,9
M,97,2013-11-06,Masaki Nakamura,Japan,1975-12-04,88.74,125,135,-140,135,,135,B,Raw,Open,10
M,97,2013-11-06,Ibrahim Almessabi,UAE,1995-04-25,92.08,93,-101,101,101,,101,B,Raw,Open,11
M,97,2013-11-06,Essam Kharir,Libya,1973-11-21,95.62,-160,-160,-160,,,,B,Raw,Open,DQ
M,97,2013-11-06,Gulom Kurbanov,Uzbekistan,1979-11-19,93.7,-50,,,,,,B,Raw,Open,DQ
M,107,2013-11-07,Mohamed Abdel Hakam Hammam,Egypt,1978-11-22,103,210,222,-230,222,,222,B,Raw,Open,1
M,107,2013-11-07,Mohamed Elsayed,Egypt,1982-01-08,98.1,210,221,-229,221,,221,B,Raw,Open,2
M,107,2013-11-07,Pingguang Tian,China,1988-06-09,102.22,180,200,202,202,,202,B,Raw,Open,3
M,107,2013-11-07,Mohd Shahmil Md Saad,Malaysia,1986-05-14,101.74,192,-197,-197,192,,192,B,Raw,Open,4
M,107,2013-11-07,Mohammad Rezaeian,Iran,1976-09-21,104,173,176,179,179,,179,B,Raw,Open,5
M,107,2013-11-07,Sung Yun Jung,South Korea,1983-11-19,105.3,-170,170,-179,170,,170,B,Raw,Open,6
M,107,2013-11-07,David Williams #6,Australia,1981-07-04,97.52,167,-174,-174,167,,167,B,Raw,Open,7
M,107,2013-11-07,Cameron Whittington,Australia,1982-07-05,105.3,-167,167,-175,167,,167,B,Raw,Open,8
M,107,2013-11-07,Obioma Daleth Aligekwe,Nigeria,1978-12-17,106,-220,-220,-225,,,,B,Raw,Open,DQ
M,107+,2013-11-07,Mansour Pourmirzaei,Iran,1980-09-21,107.46,250,273,276,276,,276,B,Raw,Open,1
M,107+,2013-11-07,Keun Bae Chun,South Korea,1978-01-01,146.64,215,225,233,233,,233,B,Raw,Open,2
M,107+,2013-11-07,Walid Raeilboom,UAE,1986-05-16,113.04,146,-156,162,162,,162,B,Raw,Open,3
M,107+,2013-11-07,Ali Abebaker,Libya,1984-01-01,110.52,-160,-160,160,160,,160,B,Raw,Open,4
M,107+,2013-11-07,Kenton Erb,Australia,1983-12-12,178.56,-168,-168,-168,,,,B,Raw,Open,DQ
