Place,Name,Sex,BirthDate,State,Country,Equipment,Division,BodyweightKg,WeightClassKg,Squat1Kg,Squat2Kg,Squat3Kg,Best3SquatKg,Bench1Kg,Bench2Kg,Bench3Kg,Best3BenchKg,Deadlift1Kg,Deadlift2Kg,Deadlift3Kg,Best3DeadliftKg,TotalKg,Event
1,Amna Khan,F,,NW,England,Raw,FR-O,52,52,90,-95,95,95,45,47.5,-50,47.5,145,155,160,160,302.5,SBD
1,Jo-Ann Corr,F,,NW,England,Raw,FR-O,57,57,70,-75,80,80,35,-37.5,37.5,37.5,90,105,115,115,232.5,SBD
1,Stephanie Leece,F,,NW,England,Raw,FR-O,60.4,63,85,95,100,100,-40,45,-50,45,135,140,145,145,290,SBD
2,Janet Derby,F,,NW,England,Raw,FR-O,62.2,63,57.5,62.5,65,65,40,42.5,45,45,80,-90,-90,80,190,SBD
3,Florence Henriksen,F,,NW,England,Raw,FR-O,68.5,69,120,127.5,-132.5,127.5,60,62.5,65,65,145,150,155,155,347.5,SBD
2,Ashley Wilkinson,F,,NW,England,Raw,FR-O,68.6,69,135,-140,140,140,67.5,70,-72.5,70,140,145,150,150,360,SBD
4,Molly Kemp,F,,NW,England,Raw,FR-O,65,69,87.5,95,100,100,45,50,,50,100,107.5,115,115,265,SBD
5,Liz Young,F,,NW,England,Raw,FR-O,68.1,69,77.5,-82.5,82.5,82.5,40,45,-47.5,45,100,110,115,115,242.5,SBD
1,Lauron Cassoni,F,,NW,England,Raw,FR-O,66.1,69,132.5,140,-145,140,62.5,70,72.5,72.5,152.5,162.5,170,170,382.5,SBD
2,Laura Battersby,F,,NW,England,Raw,FR-O,73.9,76,120,125,130,130,62.5,65,67.5,67.5,145,155,160,160,357.5,SBD
3,Sophie Bradshaw,F,,NW,England,Raw,FR-O,74.8,76,100,107.5,-112.5,107.5,55,57.5,60,60,105,110,115,115,282.5,SBD
1,Grace Burns,F,,NW,England,Raw,FR-O,71.1,76,125,132.5,135,135,60,65,-70,65,150,160,-162,160,360,SBD
2,Lauren-May Drake,F,,NW,England,Raw,FR-O,82.6,84,130,137.5,142.5,142.5,65,67.5,70,70,170,182.5,-190,182.5,395,SBD
1,Victoria Douglass,F,,NW,England,Raw,FR-O,80.1,84,135,142.5,150,150,72.5,77.5,80,80,155,162.5,170,170,400,SBD
4,Neghat Khan,F,1981-03-21,NW,England,Raw,FR-O,82.1,84,110,117.5,-120,117.5,57.5,-60,-60,57.5,140,145,150,150,325,SBD
3,Lisa Grant #2,F,,NW,England,Raw,FR-O,83,84,115,125,-132.5,125,62.5,65,67.5,67.5,175,185,192.5,192.5,385,SBD
3,Vanessa Porter,F,,NW,England,Raw,FR-O,135.2,84+,110,140,150,150,70,-77.5,-77.5,70,130,145,155,155,375,SBD
2,Gill Lomax,F,,NW,England,Raw,FR-O,105.5,84+,137.5,147.5,152.5,152.5,77.5,82.5,-85,82.5,170,180,182.5,182.5,417.5,SBD
1,Claire Roberts,F,,NW,England,Raw,FR-O,97,84+,165,175,180,180,75,85,95,95,180,200,207.5,207.5,482.5,SBD
4,Naomi Jackson,F,,NW,England,Raw,FR-O,129.8,84+,-100,100,110,110,50,-60,60,60,102.5,112.5,120,120,290,SBD
G,Tom Beech,M,,,,Raw,MR-G,72.8,74,160,170,-190,170,92.5,100,-105,100,200,220,-235,220,490,SBD
1,Ismaiel Abrahams,M,,NW,England,Raw,MR-O,71.6,74,185,195,205,205,95,100,105,105,200,220,230,230,540,SBD
3,Oliver Webster,M,,NW,England,Raw,MR-O,72.7,74,110,120,130,130,100,107.5,-115,107.5,145,155,-162.5,155,392.5,SBD
2,Matt Poole,M,,NW,England,Raw,MR-O,71.5,74,130,140,150,150,107.5,112.5,115,115,170,177.5,185,185,450,SBD
1,Andrew McEllistrim,M,,NW,England,Raw,MR-O,82.6,83,232.5,242.5,252.5,252.5,130,135,140,140,265,277.5,285,285,677.5,SBD
2,Matthew Pond,M,,NW,England,Raw,MR-O,81.3,83,245,260,265,265,147.5,155,160,160,225,240,-250,240,665,SBD
3,Jason Holmes #2,M,,NW,England,Raw,MR-O,82.7,83,197.5,212.5,-217.5,212.5,117.5,125,-132.5,125,210,222.5,230,230,567.5,SBD
4,Adam Cornes,M,,NW,England,Raw,MR-O,79.8,83,165,175,182.5,182.5,130,137.5,142.5,142.5,200,215,222.5,222.5,547.5,SBD
5,George Wise #2,M,,NW,England,Raw,MR-O,81.2,83,160,170,177.5,177.5,95,102.5,107.5,107.5,175,-177.5,182.5,182.5,467.5,SBD
6,Will Heaton,M,,NW,England,Raw,MR-O,81.3,83,-157.5,-160,160,160,95,100,-105,100,165,180,192.5,192.5,452.5,SBD
7,Leon Tomlinson,M,,NW,England,Raw,MR-O,79.9,83,140,-150,-150,140,80,-90,-90,80,170,185,200,200,420,SBD
G,James Brincat-Smith,M,,NM,England,Single-ply,M-G,171.3,120+,,,,,177.5,,,177.5,,,,,177.5,B
G,Michelle Brand #1,F,,,Scotland,Single-ply,F-G,96.7,84+,135,145,150,150,60,-95,-95,60,112.5,127.5,132.5,132.5,342.5,SBD
G,Laura Berry,F,,YNE,England,Single-ply,F-G,101.4,84+,,,,,85,95,-100,95,,,,,95,B
G,Matthew Bingham,M,,,England,Raw,MR-G,91.1,93,225,237.5,-245,237.5,147.5,155,160,160,235,250,257.5,257.5,655,SBD
1,Sam Murphy #2,M,,NW,England,Raw,MR-O,91.2,93,220,240,245,245,137.5,142.5,147.5,147.5,240,-255,255,255,647.5,SBD
2,Alasdair Mitchell,M,,NW,England,Raw,MR-O,84,93,200,212.5,225,225,130,137.5,142.5,142.5,235,247.5,260,260,627.5,SBD
3,Mike Cherry,M,,NW,England,Raw,MR-O,91.9,93,210,220,227.5,227.5,105,115,122.5,122.5,215,230,-250,230,580,SBD
4,Ben Tomlinson,M,,NW,England,Raw,MR-O,87.5,93,170,180,190,190,120,127.5,135,135,220,235,245,245,570,SBD
5,Robert Hall,M,,NW,England,Raw,MR-O,90.3,93,177.5,185,192.5,192.5,112.5,117.5,-122.5,117.5,240,250,260,260,570,SBD
6,Sam Goodson,M,,NW,England,Raw,MR-O,91.5,93,-160,165,175,175,115,122.5,127.5,127.5,205,215,227.5,227.5,530,SBD
7,Callum Ashton,M,,NW,England,Raw,MR-O,87.5,93,150,160,170,170,115,120,122.5,122.5,200,212.5,225,225,517.5,SBD
8,Elliot Hicks,M,,NW,England,Raw,MR-O,90.8,93,140,155,170,170,100,107.5,115,115,150,170,190,190,475,SBD
9,David Penney,M,,NW,England,Raw,MR-O,88.7,93,135,145,152.5,152.5,115,-120,-120,115,180,192.5,-200,192.5,460,SBD
10,Robert Cunningham,M,,NW,England,Raw,MR-O,87.2,93,157.5,165,-175,165,107.5,-112.5,-115,107.5,175,180,185,185,457.5,SBD
1,Paul Jackson #1,M,,NW,England,Raw,MR-O,103.8,105,210,225,235,235,145,155,-160,155,250,285,292.5,292.5,682.5,SBD
2,James Shaw,M,,NW,England,Raw,MR-O,102.4,105,210,230,245,245,145,160,-170,160,240,260,275,275,680,SBD
3,Matthew Jones #24,M,,NW,England,Raw,MR-O,102.4,105,215,232.5,-245,232.5,137.5,147.5,155,155,230,250,265,265,652.5,SBD
4,Chris Horton,M,,NW,England,Raw,MR-O,103.6,105,235,242.5,245,245,160,-167.5,-167.5,160,225,235,242.5,242.5,647.5,SBD
5,Kyle Bruney,M,,NW,England,Raw,MR-O,102.4,105,195,205,207.5,207.5,140,145,-147.5,145,240,260,-267.5,260,612.5,SBD
6,Simon Beer,M,,NW,England,Raw,MR-O,98,105,190,205,210,210,130,137.5,142.5,142.5,-210,210,225,225,577.5,SBD
7,Dave Bramhall,M,,NW,England,Raw,MR-O,104.3,105,175,185,-195,185,140,145,150,150,225,235,240,240,575,SBD
8,Jack Whitehurst,M,,NW,England,Raw,MR-O,99.5,105,180,190,197.5,197.5,-130,130,137.5,137.5,200,212.5,225,225,560,SBD
9,Adam Anderson #1,M,,NW,England,Raw,MR-O,104.5,105,175,182.5,-190,182.5,122.5,127.5,-130,127.5,207.5,220,230,230,540,SBD
10,Hugo Kiff,M,,NW,England,Raw,MR-O,102.1,105,165,175,180,180,110,117.5,-120,117.5,-210,210,225,225,522.5,SBD
11,Colin Davies,M,,NW,England,Raw,MR-O,104.5,105,-182.5,-192.5,192.5,192.5,107.5,-112.5,-112.5,107.5,192.5,202.5,-212.5,202.5,502.5,SBD
1,Curtis McLaren,M,,NW,England,Raw,MR-O,113,120,250,270,285,285,150,160,170,170,285,300,322.5,322.5,777.5,SBD
2,Jack Wiley,M,,NW,England,Raw,MR-O,116.7,120,210,225,235,235,180,190,-195,190,270,285,295,295,720,SBD
3,Paul Preston,M,,NW,England,Raw,MR-O,118.3,120,257.5,267.5,277.5,277.5,145,150,152.5,152.5,272.5,282.5,-287.5,282.5,712.5,SBD
4,Josh Hayford,M,,NW,England,Raw,MR-O,113.1,120,215,225,232.5,232.5,125,132.5,135,135,260,272.5,282.5,282.5,650,SBD
5,James Williamson #1,M,,NW,England,Raw,MR-O,111.6,120,200,215,225,225,137.5,145,150,150,235,247.5,260,260,635,SBD
6,Jimmy Nsouli,M,,NW,England,Raw,MR-O,110.6,120,210,220,227.5,227.5,142.5,-150,150,150,-230,230,,230,607.5,SBD
7,Archie Follis,M,,NW,England,Raw,MR-O,114.9,120,-207.5,207.5,220,220,125,127.5,130,130,210,220,230,230,580,SBD
8,Tristan Murphy,M,,NW,England,Raw,MR-O,118.7,120,175,180,195,195,100,-112.5,112.5,112.5,200,215,230,230,537.5,SBD
G,Phil Frost,M,,YNE,England,Single-ply,M-G,128.9,120+,175,190,205,205,212.5,217.5,222.5,222.5,150,185,210,210,637.5,SBD
