﻿BDFPF BK. CHAMP BEL SQUAT UNEQ 2013
BK. SQUATU UNEQUIPPED 2013
                                                     W.Class                                                                                         1é      2é     3é       4    points
1                                     1              - 44 KG Van Casteren                       Hanne           V    Gilberts Gym   15   T1   41,6   55      60     65            75,26
1                                     1              - 50,5 KG                 Van Vlasselaer   Marijke     V   Planet Fitness      25   SR   49,9   75      82,5   -90           82,63
1                                     1              52 KG De Lauw                              Luc         M   Plannet Fitness     48   M2   51,7   70      80     90       95   86,22
2                                     1              52 KG Devos                                Lorenzo         M     Body 2 Fit    16   T2   48,2   60      62,5   -65           65,10
1                                     1              56 KG Devos                                Gillian         M    Zwevegem       14   T1   55,0   70      72,5   -77,5         64,70
1                                     1              67,5 KG Van den Abbeele                    Tim             M    Gilberts Gym   25   SR   66,1   130     140    -155          103,57
2                                     1              67,5 KG Abd Rabbihi                        Hassan          M    Gilberts Gym   22   JR   67,4   115     130    140           101,75
3                                     1              67,5 KG Vanhee                             Emmerik     M   Isogym              23   JR   66,3   110     120    125           92,21
1                                     1              75 KG Tirth                                Ram         M   Dynamic Gym         40   M1   74,2   -175    175    -180          117,27
2                                     1              75 KG Smet                                 Frederick   M   Planet Fitness      23   JR   74,0   -160    165    172,5         115,82
3                                     2              75 KG Devos                                Kurt            M    Zwevegem       42   M1   71,3   -110    110    -112,5        76,15
1                                     1              82,5 KG                   Sudarminto       Indra       M   Planet Fitness      22   JR   76,5   200     215    230           150,49
2                                     1              82,5 KG Brams                              Bert        M   Planet Fitness      28   SR   78,7   170     185    -200          118,49
3                                     2              82,5 KG Soenens                            Gillis      M   Isogym              23   JR   80,3   147,5   155    -162,5        97,84
4                                     3              82,5 KG Cuylle                             Angelo      M   Isogym              20   JR   80,7   140     150    155           97,50
1                                     1              90 KG Peeters                              Alan            M    Gilberts Gym   19   T3   86,5   180     190    200           120,00
2                                     1              90 KG Verbeke                              Beny        M   Isogym              48   M2   86,6   165     175    185           110,91
3                                     1              90 KG Theyssens                            Martin          M    Patton Team    73   M7   84,3   90      100    110           67,12
Nat Record                            World Record
European Record                       Best Lifter
12 - 10 - 2013  Merksem
