Division,WeightClassKg,Place,Name,Team,BodyweightKg,Best3SquatKg,Best3BenchKg,Best3DeadliftKg,TotalKg,Equipment,Event,Sex
Boys,51.71,1,Diego Gallegos,Alvin,51.71,142.88,95.25,170.1,408.23,Single-ply,SBD,M
Boys,51.71,2,Jaylynn Mitchell,Crosby,51.62,102.06,68.04,102.06,272.16,Single-ply,SBD,M
Boys,51.71,3,Raul Diaz,Alvin,45.09,92.99,49.9,97.52,240.4,Single-ply,SBD,M
Boys,51.71,4,Latoddrarick Lute,Port Arthur Memorial,49.9,86.18,38.56,102.06,226.8,Single-ply,SBD,M
Boys,55.79,1,Tru'Dareyian Andrus,Port Arthur Memorial,54.88,108.86,68.04,158.76,335.66,Single-ply,SBD,M
Boys,59.87,1,Moc Moo,Port Lavaca Calhoun,58.88,208.65,111.13,183.7,503.49,Single-ply,SBD,M
Boys,59.87,2,Matthew Longoria,Alvin,56.79,124.74,104.33,140.61,369.68,Single-ply,SBD,M
Boys,59.87,3,Dominique Johnson,Beaumont West Brook,59.51,124.74,77.11,154.22,356.07,Single-ply,SBD,M
Boys,59.87,4,Christian Flores,Alvin,56.88,117.93,70.31,122.47,310.71,Single-ply,SBD,M
Boys,67.13,1,Zach Mutchler,Alvin,66.04,219.99,154.22,192.78,566.99,Single-ply,SBD,M
Boys,67.13,2,Charles Bell,Beaumont West Brook,65.32,142.88,102.06,163.29,408.23,Single-ply,SBD,M
Boys,67.13,3,Malik Griffin,Crosby,66.77,158.76,83.91,142.88,385.55,Single-ply,SBD,M
Boys,67.13,4,Logan Hines,Willis,66.32,149.69,83.91,142.88,376.48,Single-ply,SBD,M
Boys,67.13,5,Christopher Hogan,Alvin,66.59,120.2,83.91,161.03,365.14,Single-ply,SBD,M
Boys,67.13,6,Ivan Fuentes,Willis,60.15,138.35,83.91,140.61,362.87,Single-ply,SBD,M
Boys,67.13,7,Marcus Coronado,Alvin,65.95,129.27,72.57,158.76,360.61,Single-ply,SBD,M
Boys,67.13,8,Ken Gordon,Port Arthur Memorial,63.68,117.93,86.18,136.08,340.19,Single-ply,SBD,M
Boys,67.13,9,Tyler Bond,New Caney,65.68,127.01,77.11,136.08,340.19,Single-ply,SBD,M
Boys,67.13,10,Brett Jackson,Beaumont West Brook,64.59,92.99,47.63,129.27,269.89,Single-ply,SBD,M
Boys,74.84,1,Daniel Leita,Port Lavaca Calhoun,71.21,204.12,124.74,226.8,555.65,Single-ply,SBD,M
Boys,74.84,2,Odis Mack,Port Arthur Memorial,74.39,197.31,92.99,204.12,494.42,Single-ply,SBD,M
Boys,74.84,3,James Jones,Beaumont West Brook,71.67,185.97,108.86,176.9,471.74,Single-ply,SBD,M
Boys,74.84,4,Angel Navarro,Crosby,73.21,188.24,95.25,181.44,464.93,Single-ply,SBD,M
Boys,74.84,5,Esai Gonzalez,Port Lavaca Calhoun,71.12,176.9,113.4,167.83,458.13,Single-ply,SBD,M
Boys,74.84,6,Danny Garcia,New Caney,72.67,176.9,95.25,181.44,453.59,Single-ply,SBD,M
Boys,74.84,7,Tristan Trigo,Alvin,69.22,117.93,72.57,161.03,351.53,Single-ply,SBD,M
Boys,82.1,1,Daniel Rodriguez #6,Port Lavaca Calhoun,79.65,249.48,127.01,231.33,607.81,Single-ply,SBD,M
Boys,82.1,2,Kris Narcisse,Beaumont Ozen,81.92,226.8,147.42,197.31,571.53,Single-ply,SBD,M
Boys,82.1,3,Lance Cole,Crosby,82.1,215.46,142.88,204.12,562.45,Single-ply,SBD,M
Boys,82.1,4,Sterling Winzor,Beaumont Ozen,81.65,190.51,124.74,222.26,537.51,Single-ply,SBD,M
Boys,82.1,5,Xavier Rivera,Port Lavaca Calhoun,80.65,176.9,127.01,199.58,503.49,Single-ply,SBD,M
Boys,82.1,6,Jaxen Halbaedier,Willis,82.1,192.78,113.4,195.04,501.22,Single-ply,SBD,M
Boys,82.1,7,Markell Perry,Beaumont Ozen,80.83,176.9,117.93,199.58,494.42,Single-ply,SBD,M
Boys,82.1,8,Gary Carter,Crosby,79.56,181.44,108.86,195.04,485.34,Single-ply,SBD,M
Boys,82.1,9,Justin Daffin,Beaumont West Brook,76.2,161.03,92.99,195.04,449.06,Single-ply,SBD,M
Boys,82.1,10,Sam Jones #3,New Caney,75.02,167.83,97.52,170.1,435.45,Single-ply,SBD,M
Boys,82.1,11,Ced Lee,Port Arthur Memorial,79.56,170.1,108.86,154.22,433.18,Single-ply,SBD,M
Boys,82.1,12,Jacob Barrera,Alvin,80.01,156.49,90.72,149.69,396.89,Single-ply,SBD,M
Boys,82.1,13,Justin Stein,Alvin,79.11,113.4,63.5,138.35,315.25,Single-ply,SBD,M
Boys,82.1,DQ,John Thompson,Alvin,81.28,149.69,,,,Single-ply,SBD,M
Boys,89.81,1,Travis Anderson,Crosby,88.36,249.48,165.56,238.14,653.17,Single-ply,SBD,M
Boys,89.81,2,Jorge Ochoa,Beaumont West Brook,87.91,192.78,120.2,208.65,521.63,Single-ply,SBD,M
Boys,89.81,3,Ivan Posadas,Port Lavaca Calhoun,89.45,199.58,106.59,192.78,498.95,Single-ply,SBD,M
Boys,89.81,4,Jon Hay,Willis,88.18,204.12,95.25,181.44,480.81,Single-ply,SBD,M
Boys,89.81,5,Sylas Montgomery,Port Lavaca Calhoun,88.81,183.7,97.52,183.7,464.93,Single-ply,SBD,M
Boys,89.81,6,Brandon Diaz,Crosby,88.27,136.08,106.59,181.44,424.11,Single-ply,SBD,M
Boys,89.81,7,Jesus Rocha,New Caney,89.63,145.15,74.84,136.08,356.07,Single-ply,SBD,M
Boys,89.81,8,Eduardo Maury,Beaumont Ozen,84.91,90.72,58.97,136.08,285.76,Single-ply,SBD,M
Boys,89.81,DQ,Darren Jones,Alvin,89.45,181.44,,,,Single-ply,SBD,M
Boys,89.81,DQ,Tyler Russ,Alvin,84.91,113.4,,,,Single-ply,SBD,M
Boys,89.81,DQ,Travis Hyman,Crosby,87.27,,,,,Single-ply,SBD,M
Boys,99.79,1,Brant Kobersky,Alvin,96.89,249.48,149.69,215.46,614.62,Single-ply,SBD,M
Boys,99.79,2,Leo Colom,Port Lavaca Calhoun,97.61,197.31,117.93,210.92,526.17,Single-ply,SBD,M
Boys,99.79,3,John Perez #2,Port Lavaca Calhoun,97.16,204.12,124.74,190.51,519.36,Single-ply,SBD,M
Boys,99.79,4,Clayton Kelleher,Willis,93.44,226.8,97.52,181.44,505.76,Single-ply,SBD,M
Boys,99.79,5,Caleb Richardson,New Caney,92.17,188.24,120.2,190.51,498.95,Single-ply,SBD,M
Boys,99.79,6,Presley Viltz,Port Arthur Memorial,93.44,185.97,99.79,183.7,469.47,Single-ply,SBD,M
Boys,99.79,7,Alejandro Hernandez,Beaumont West Brook,90.08,172.37,115.67,172.37,460.4,Single-ply,SBD,M
Boys,99.79,8,Travis Anderson,Crosby,99.52,163.29,104.33,190.51,458.13,Single-ply,SBD,M
Boys,99.79,9,Jake Jones,Willis,91.35,170.1,97.52,181.44,449.06,Single-ply,SBD,M
Boys,99.79,10,Jorge Zumarraga,Willis,92.26,190.51,92.99,142.88,426.38,Single-ply,SBD,M
Boys,99.79,11,Claude Conner,Beaumont Ozen,91.72,120.2,102.06,181.44,403.7,Single-ply,SBD,M
Boys,99.79,12,Jace Mayfield,Willis,96.52,113.4,97.52,136.08,347,Single-ply,SBD,M
Boys,99.79,13,Jaycob Salazar,Alvin,91.72,99.79,43.09,133.81,276.69,Single-ply,SBD,M
Boys,99.79,DQ,Alfred Berry,Port Arthur Memorial,96.34,142.88,,,,Single-ply,SBD,M
Boys,109.77,1,Eddie Garcia,Port Lavaca Calhoun,105.14,294.84,158.76,254.01,707.6,Single-ply,SBD,M
Boys,109.77,2,Diundre Washington,Beaumont Ozen,109.77,272.16,179.17,208.65,659.98,Single-ply,SBD,M
Boys,109.77,3,Braydon Williams,Port Arthur Memorial,104.51,176.9,102.06,181.44,460.4,Single-ply,SBD,M
Boys,109.77,4,Eric Taylor #4,Beaumont Ozen,103.15,170.1,86.18,158.76,415.04,Single-ply,SBD,M
Boys,109.77,5,Dylan McClain,Alvin,102.69,131.54,90.72,183.7,405.97,Single-ply,SBD,M
Boys,109.77,6,Neeairus Withers,Beaumont Ozen,105.69,138.35,102.06,161.03,401.43,Single-ply,SBD,M
Boys,109.77,7,Nicholas Touch,Alvin,101.33,115.67,81.65,145.15,342.46,Single-ply,SBD,M
Boys,109.77,DQ,Christian Crooks,New Caney,103.78,,,,,Single-ply,SBD,M
Boys,109.77,DQ,Blake Haight,Willis,107.86,204.12,117.93,,,Single-ply,SBD,M
Boys,124.74,1,Kainen Collins,Port Arthur Memorial,114.49,231.33,122.47,217.72,571.53,Single-ply,SBD,M
Boys,124.74,2,Matthew Frazier,Port Lavaca Calhoun,111.04,226.8,149.69,192.78,569.26,Single-ply,SBD,M
Boys,124.74,3,Cameron Helms,Alvin,117.66,254.01,131.54,183.7,569.26,Single-ply,SBD,M
Boys,124.74,4,DeJante Granger,Beaumont Ozen,124.74,199.58,120.2,195.04,514.83,Single-ply,SBD,M
Boys,124.74,5,Jerome Harmon,Beaumont Ozen,118.75,192.78,106.59,195.04,494.42,Single-ply,SBD,M
Boys,124.74,6,Manuel Alamanza,New Caney,111.13,174.63,97.52,176.9,449.06,Single-ply,SBD,M
Boys,124.74,7,Leonardo Alegria,Alvin,111.67,142.88,111.13,133.81,387.82,Single-ply,SBD,M
Boys,124.74,8,Aaron Mata,Alvin,111.22,131.54,79.38,158.76,369.68,Single-ply,SBD,M
Boys,124.74,9,Cameron Balinski,Crosby,116.3,136.08,90.72,136.08,362.87,Single-ply,SBD,M
Boys,124.74,DQ,Chuck Ume,New Caney,112.13,,,,,Single-ply,SBD,M
Boys,124.74,DQ,Dylan Poindexter,New Caney,110.86,204.12,,,,Single-ply,SBD,M
Boys,124.74,DQ,Jason Vargas,Willis,113.94,226.8,,,,Single-ply,SBD,M
Boys,124.74+,1,Brandon Jackson,Port Arthur Memorial,131.9,272.16,154.22,258.55,684.92,Single-ply,SBD,M
Boys,124.74+,2,Brandon Artis,Port Arthur Memorial,141.7,258.55,142.88,258.55,659.98,Single-ply,SBD,M
Boys,124.74+,3,Ambrows Moreland,Beaumont Ozen,142.52,226.8,117.93,215.46,560.19,Single-ply,SBD,M
Boys,124.74+,4,Danny Guajardo,Crosby,138.35,195.04,108.86,188.24,492.15,Single-ply,SBD,M
Boys,124.74+,5,Noah Barajas,Alvin,125.01,131.54,83.91,156.49,371.95,Single-ply,SBD,M
Boys,124.74+,DQ,Jimmy White,Willis,143.24,306.17,174.63,,,Single-ply,SBD,M
