Division,WeightClassKg,Place,Name,Team,BodyweightKg,Best3SquatKg,Best3BenchKg,Best3DeadliftKg,TotalKg,Equipment,Event,Sex
Freshmen,51.71,1,Ramiro Trevino,Laredo Nixon,46.63,90.72,56.7,111.13,258.55,Single-ply,SBD,M
Freshmen,51.71,2,Oscar Martel,Laredo United South,42.18,92.99,61.23,99.79,254.01,Single-ply,SBD,M
Freshmen,55.79,1,Franky Villanueva,Roma,52.34,90.72,49.9,124.74,265.35,Single-ply,SBD,M
Freshmen,55.79,2,Jose Alcorta,Laredo United South,54.02,102.06,63.5,95.25,260.82,Single-ply,SBD,M
Freshmen,59.87,1,Jose Gutierrez,Zapata,59.87,106.59,79.38,136.08,322.05,Single-ply,SBD,M
Freshmen,59.87,2,Nicholas Uvalle,Laredo Alexander,59.51,79.38,61.23,106.59,247.21,Single-ply,SBD,M
Freshmen,59.87,3,Jose Ruvalcaba,Laredo Johnson,57.83,72.57,54.43,90.72,217.72,Single-ply,SBD,M
Freshmen,59.87,DQ,Gerardo M,Laredo Martin,59.1,,,,,Single-ply,SBD,M
Freshmen,74.84,1,Cesar Uribe,Zapata,67.31,142.88,70.31,138.35,351.53,Single-ply,SBD,M
Freshmen,67.13,2,Bryan Garcia,Roma,61.51,131.54,79.38,138.35,349.27,Single-ply,SBD,M
Freshmen,67.13,3,Jose Moreno,Roma,61.51,106.59,65.77,156.49,328.85,Single-ply,SBD,M
Freshmen,67.13,4,Eduardo Iglesias,Laredo Nixon,66.18,120.2,72.57,136.08,328.85,Single-ply,SBD,M
Freshmen,67.13,5,Joseph Lozano,Laredo Nixon,61.69,104.33,68.04,140.61,312.98,Single-ply,SBD,M
Freshmen,67.13,6,Danny Palomo,Laredo Alexander,61.92,97.52,74.84,124.74,297.1,Single-ply,SBD,M
Freshmen,67.13,7,Federico Mendez,Laredo Martin,64.55,102.06,61.23,113.4,276.69,Single-ply,SBD,M
Freshmen,67.13,8,Javier De Hoyos,Laredo United South,64.82,97.52,58.97,111.13,267.62,Single-ply,SBD,M
Freshmen,67.13,9,Cesar Guerra,Laredo Nixon,65.82,88.45,49.9,122.47,260.82,Single-ply,SBD,M
Freshmen,67.13,10,Alexis Iglesias #2,Laredo Nixon,61.14,86.18,54.43,117.93,258.55,Single-ply,SBD,M
Freshmen,67.13,11,Raul Ozornia,Laredo Johnson,62.41,86.18,54.43,108.86,249.48,Single-ply,SBD,M
Freshmen,67.13,12,Brian Urbina,Laredo Johnson,64.77,70.31,43.09,72.57,185.97,Single-ply,SBD,M
Freshmen,67.13,DQ,John Meza,Laredo Martin,61.78,,,,,Single-ply,SBD,M
Freshmen,74.84,1,Arturo Sanchez,Laredo Martin,72.21,133.81,92.99,174.63,401.43,Single-ply,SBD,M
Freshmen,74.84,2,Jorge Flores,Laredo Martin,73.21,124.74,70.31,188.24,383.29,Single-ply,SBD,M
Freshmen,74.84,3,Ruben Enriquez,Laredo Martin,73.84,124.74,86.18,145.15,356.07,Single-ply,SBD,M
Freshmen,74.84,4,Zeke Coss,Laredo Alexander,68.86,111.13,74.84,142.88,328.85,Single-ply,SBD,M
Freshmen,74.84,5,Johnny Guererro,Laredo Nixon,71.76,102.06,79.38,145.15,326.59,Single-ply,SBD,M
Freshmen,74.84,6,Arturo Gutierrez,Laredo Martin,73.71,129.27,58.97,138.35,326.59,Single-ply,SBD,M
Freshmen,74.84,7,Roel Gomez,Zapata,70.31,113.4,74.84,131.54,319.78,Single-ply,SBD,M
Freshmen,74.84,8,Jacoby Torres,Laredo Alexander,68.72,102.06,70.31,133.81,306.17,Single-ply,SBD,M
Freshmen,74.84,9,Juan Castillo,Laredo Johnson,73.71,72.57,70.31,142.88,285.76,Single-ply,SBD,M
Freshmen,74.84,10,Pablo Ramirez,Laredo Alexander,69.99,92.99,68.04,113.4,274.42,Single-ply,SBD,M
Freshmen,74.84,11,Gilberto Sanchez,Laredo Johnson,70.35,86.18,58.97,127.01,272.16,Single-ply,SBD,M
Freshmen,74.84,12,Jacito Mata,Laredo Johnson,68.86,81.65,61.23,102.06,244.94,Single-ply,SBD,M
Freshmen,82.1,1,Luis Rodriguez,Laredo Nixon,80.01,133.81,61.23,138.35,333.39,Single-ply,SBD,M
Freshmen,82.1,2,Mark Gonzalez,Laredo Alexander,75.93,102.06,74.84,142.88,319.78,Single-ply,SBD,M
Freshmen,82.1,3,Joey Casso,Laredo United,77.79,106.59,61.23,142.88,310.71,Single-ply,SBD,M
Freshmen,82.1,4,Dylan Medrano,Laredo Alexander,79.47,102.06,61.23,117.93,281.23,Single-ply,SBD,M
Freshmen,89.81,1,Elder Manuel,Roma,86.14,154.22,104.33,174.63,433.18,Single-ply,SBD,M
Freshmen,89.81,2,Marco Munoz,Laredo Nixon,82.51,154.22,81.65,192.78,428.64,Single-ply,SBD,M
Freshmen,89.81,3,Jesus Castillo,Roma,86.36,124.74,61.23,124.74,310.71,Single-ply,SBD,M
Freshmen,89.81,4,Jesse Salinas #2,Laredo Alexander,84.87,102.06,65.77,113.4,281.23,Single-ply,SBD,M
Freshmen,89.81,5,David Rivera,Laredo Alexander,86.23,92.99,61.23,124.74,278.96,Single-ply,SBD,M
Freshmen,89.81,6,Victor Flores,Laredo Johnson,87.41,70.31,63.5,104.33,238.14,Single-ply,SBD,M
Freshmen,89.81,7,Raul Gonzalez,Laredo United,84.37,83.91,34.02,92.99,210.92,Single-ply,SBD,M
Freshmen,89.81,DQ,Josue Huerta,Laredo United South,85.82,,,,,Single-ply,SBD,M
Freshmen,99.79,1,Franco Arce,Zapata,96.93,208.65,97.52,192.78,498.95,Single-ply,SBD,M
Freshmen,99.79,2,Juan DeLuna,Laredo United South,98.34,142.88,81.65,147.42,371.95,Single-ply,SBD,M
Freshmen,99.79,3,Kevin Reyes,Laredo United South,95.48,102.06,92.99,136.08,331.12,Single-ply,SBD,M
Freshmen,99.79,4,Enrique Ramirez,Laredo Johnson,98.29,90.72,61.23,113.4,265.35,Single-ply,SBD,M
Freshmen,99.79,DQ,Alan Median,Zapata,92.31,,,,,Single-ply,SBD,M
Freshmen,109.77,1,Alvaro Andrade,Roma,108.77,204.12,108.86,188.24,501.22,Single-ply,SBD,M
Freshmen,109.77,2,Abel Mendoza,Laredo Nixon,107.46,167.83,95.25,158.76,421.84,Single-ply,SBD,M
Freshmen,109.77,3,Chris Iruegas,Laredo Alexander,104.14,108.86,86.18,111.13,306.17,Single-ply,SBD,M
Freshmen,109.77,4,Rene Vargas,Laredo Martin,109,108.86,70.31,120.2,299.37,Single-ply,SBD,M
Freshmen,109.77,5,Jose Urbina,Laredo Johnson,108.54,102.06,68.04,90.72,260.82,Single-ply,SBD,M
Freshmen,124.74,DQ,Oscar Medellin,Laredo Martin,109.91,83.91,,,,Single-ply,SBD,M
Freshmen,124.74,1,Marcos Solis,Roma,112.81,183.7,102.06,192.78,478.54,Single-ply,SBD,M
Freshmen,124.74,2,Jon Aguilar,Laredo Martin,112.54,161.03,90.72,147.42,399.16,Single-ply,SBD,M
Freshmen,124.74,3,Ismael Gonzalez,Laredo Johnson,113.08,124.74,63.5,138.35,326.59,Single-ply,SBD,M
Freshmen,124.74,4,Denilson Hinjosa,Laredo United,110.18,106.59,68.04,129.27,303.91,Single-ply,SBD,M
Freshmen,124.74,5,Saul Tenite,Laredo United,116.17,83.91,,,83.91,Single-ply,S,M
Freshmen,124.74,DQ,Ferny Herrera,Zapata,121.29,,,,,Single-ply,S,M
Freshmen,124.74,DQ,Michael Moreno,Zapata,114.21,136.08,,,,Single-ply,S,M
Freshmen,124.74+,1,Rai Bernal,Laredo United,136.94,142.88,88.45,124.74,356.07,Single-ply,SBD,M
Freshmen,124.74+,2,Pablo Gonzalez,Roma,129.41,117.93,79.38,136.08,333.39,Single-ply,SBD,M
Freshmen,124.74+,3,Miguel Rubio,Laredo Alexander,128.82,102.06,79.38,129.27,310.71,Single-ply,SBD,M
Freshmen,124.74+,4,Luis Barron,Laredo Johnson,127.37,79.38,70.31,117.93,267.62,Single-ply,SBD,M
Boys,51.71,1,Robert Gonzalez,Laredo Cigarroa,51.07,136.08,79.38,147.42,362.87,Single-ply,SBD,M
Boys,51.71,2,Nelson Carmona,Laredo Martin,46.99,136.08,68.04,136.08,340.19,Single-ply,SBD,M
Boys,55.79,3,Luis Garcia #4,Laredo Martin,51.75,127.01,61.23,136.08,324.32,Single-ply,SBD,M
Boys,51.71,4,David Lozano,Roma,49.53,117.93,61.23,133.81,312.98,Single-ply,SBD,M
Boys,55.79,1,Jesus Trevino,Zapata,54.48,156.49,92.99,179.17,428.64,Single-ply,SBD,M
Boys,55.79,2,Raul Fuentes,Laredo Nixon,52.62,88.45,52.16,122.47,263.08,Single-ply,SBD,M
Boys,59.87,1,Artemio Garcia,Zapata,59.28,210.92,129.27,208.65,548.85,Single-ply,SBD,M
Boys,59.87,2,Mario Saldivar,Laredo Alexander,56.65,154.22,74.84,170.1,399.16,Single-ply,SBD,M
Boys,67.13,3,Felix Ruiz,Laredo Nixon,60.1,124.74,65.77,138.35,328.85,Single-ply,SBD,M
Boys,67.13,1,Jonathan Pena,Laredo United South,65.82,235.87,142.88,213.19,591.94,Single-ply,SBD,M
Boys,67.13,2,Marvin Martinez,Laredo United South,65.27,201.85,120.2,165.56,487.61,Single-ply,SBD,M
Boys,67.13,3,Josue Tobias,Laredo Nixon,63.73,176.9,97.52,210.92,485.34,Single-ply,SBD,M
Boys,67.13,4,Jonathan Ramirez,Laredo Martin,66.27,156.49,90.72,165.56,412.77,Single-ply,SBD,M
Boys,67.13,5,Hiram Olvera,Laredo Martin,65.14,140.61,79.38,147.42,367.41,Single-ply,SBD,M
Boys,67.13,6,Diego Garcia,Laredo Johnson,67.13,108.86,102.06,156.49,367.41,Single-ply,SBD,M
Boys,67.13,7,Jesse Ramirez #4,Laredo Alexander,66.18,129.27,72.57,142.88,344.73,Single-ply,SBD,M
Boys,67.13,8,Victor Castro #1,Laredo Johnson,66.27,113.4,81.65,136.08,331.12,Single-ply,SBD,M
Boys,67.13,9,Christopher Chavez #2,Laredo Martin,62.46,104.33,61.23,147.42,312.98,Single-ply,SBD,M
Boys,67.13,10,Moises Macias,Laredo United,66.41,97.52,61.23,113.4,272.16,Single-ply,SBD,M
Boys,74.84,1,Hector Villarreal,Laredo United South,71.4,204.12,108.86,199.58,512.56,Single-ply,SBD,M
Boys,74.84,2,Victor Villarreal,Laredo Martin,74.25,179.17,83.91,188.24,451.32,Single-ply,SBD,M
Boys,74.84,3,Rene Cabrerra,Laredo Cigarroa,69.49,190.51,92.99,142.88,426.38,Single-ply,SBD,M
Boys,74.84,4,Gabriel Bautista,Zapata,69.31,136.08,92.99,185.97,415.04,Single-ply,SBD,M
Boys,74.84,5,Jesse Bautwell,Laredo Alexander,73.94,145.15,90.72,147.42,383.29,Single-ply,SBD,M
Boys,74.84,6,Leonardo Benavides,Laredo Johnson,74.8,133.81,83.91,138.35,356.07,Single-ply,SBD,M
Boys,74.84,7,Juan Alvardo,Laredo Nixon,71.94,102.06,83.91,154.22,340.19,Single-ply,SBD,M
Boys,74.84,8,Calvin Pena,Laredo Nixon,73.35,111.13,72.57,136.08,319.78,Single-ply,SBD,M
Boys,74.84,9,Antonio Garza,Laredo Johnson,70.85,83.91,72.57,113.4,269.89,Single-ply,SBD,M
Boys,74.84,DQ,Raul Soliz,Laredo Cigarroa,73.03,111.13,,,,Single-ply,SBD,M
Boys,82.1,1,Yahir Garcia,Laredo United South,76.88,213.19,129.27,238.14,580.6,Single-ply,SBD,M
Boys,82.1,2,Mark Molina,Laredo Cigarroa,78.61,192.78,97.52,204.12,494.42,Single-ply,SBD,M
Boys,82.1,3,Matthew Guzman,Laredo Nixon,80.78,176.9,102.06,165.56,444.52,Single-ply,SBD,M
Boys,82.1,4,Pablo Huerta,Laredo Alexander,80.1,170.1,102.06,149.69,421.84,Single-ply,SBD,M
Boys,82.1,5,Edwin Cortez,Laredo Johnson,81.83,129.27,92.99,170.1,392.36,Single-ply,SBD,M
Boys,82.1,6,Emmanuel Garza,Laredo United,76.97,113.4,83.91,142.88,340.19,Single-ply,SBD,M
Boys,82.1,7,Chris Neaque,Laredo Nixon,80.2,120.2,74.84,140.61,335.66,Single-ply,SBD,M
Boys,89.81,1,David Luna,Laredo Johnson,87.23,219.99,115.67,244.94,580.6,Single-ply,SBD,M
Boys,99.79,2,Hugo Zamora,Laredo Cigarroa,90.04,213.19,158.76,204.12,576.06,Single-ply,SBD,M
Boys,89.81,3,Jose Anaya,Laredo United South,88.77,233.6,113.4,206.38,553.38,Single-ply,SBD,M
Boys,89.81,4,Omar Galan,Laredo Alexander,87.18,199.58,113.4,204.12,517.1,Single-ply,SBD,M
Boys,89.81,5,Rolando De Los Santos,Zapata,89.27,190.51,111.13,188.24,489.88,Single-ply,SBD,M
Boys,89.81,6,Victor Lozano,Laredo Nixon,89.04,181.44,86.18,185.97,453.59,Single-ply,SBD,M
Boys,89.81,7,Cristobal Moreno,Roma,86.86,149.69,88.45,181.44,419.57,Single-ply,SBD,M
Boys,89.81,8,Angel Blanco,Laredo Cigarroa,89.81,133.81,95.25,158.76,387.82,Single-ply,SBD,M
Boys,89.81,9,Chris LaRosch,Zapata,85.23,147.42,83.91,151.95,383.29,Single-ply,SBD,M
Boys,89.81,DQ,Nathanael Rerderia,Laredo Johnson,87.09,90.72,,,,Single-ply,SBD,M
Boys,99.79,1,Erick Gil,Laredo Alexander,97.43,176.9,142.88,190.51,510.29,Single-ply,SBD,M
Boys,99.79,2,Gabino Barrera,Roma,98.79,204.12,115.67,183.7,503.49,Single-ply,SBD,M
Boys,99.79,3,Gerardo Gonzalez,Roma,96.12,183.7,129.27,181.44,494.42,Single-ply,SBD,M
Boys,99.79,4,Jesse Hernandez,Laredo Alexander,96.25,170.1,127.01,181.44,478.54,Single-ply,SBD,M
Boys,99.79,5,Eduardo Dominguez,Laredo United,93.85,165.56,102.06,183.7,451.32,Single-ply,SBD,M
Boys,99.79,6,Joel Vedia,Laredo Johnson,97.43,142.88,83.91,158.76,385.55,Single-ply,SBD,M
Boys,99.79,7,Alex Fonseca,Laredo United,97.43,151.95,83.91,142.88,378.75,Single-ply,SBD,M
Boys,99.79,8,Michael Almedina,Zapata,96.93,142.88,83.91,147.42,374.21,Single-ply,SBD,M
Boys,109.77,1,Jesus Zapata,Roma,105.23,256.28,147.42,231.33,635.03,Single-ply,SBD,M
Boys,109.77,2,Francisco Toriecilla,Laredo Nixon,107.32,231.33,108.86,249.48,589.67,Single-ply,SBD,M
Boys,109.77,3,Amando Castillo,Laredo Alexander,108.64,201.85,127.01,201.85,530.7,Single-ply,SBD,M
Boys,109.77,4,Austin Hart,Laredo Alexander,106.14,204.12,102.06,215.46,521.63,Single-ply,SBD,M
Boys,109.77,5,Eliud Benavides,Laredo Martin,108.59,195.04,115.67,179.17,489.88,Single-ply,SBD,M
Boys,109.77,6,Jorge Rodriguez,Zapata,105.32,167.83,117.93,199.58,485.34,Single-ply,SBD,M
Boys,109.77,7,Albert Escobar,Roma,103.6,149.69,95.25,170.1,415.04,Single-ply,SBD,M
Boys,109.77,8,Axel Martinez,Roma,106.73,124.74,77.11,149.69,351.53,Single-ply,SBD,M
Boys,109.77,DQ,Erik Huerta,Laredo United South,107.91,204.12,,,,Single-ply,SBD,M
Boys,124.74,1,Carlos Sanchez,Laredo United South,124.42,317.51,158.76,272.16,748.43,Single-ply,SBD,M
Boys,124.74,2,Eric Chapa,Zapata,111.54,222.26,127.01,208.65,557.92,Single-ply,SBD,M
Boys,124.74,3,Oscar Zepeda,Zapata,118.39,204.12,124.74,210.92,539.77,Single-ply,SBD,M
Boys,124.74,4,Guadalupe Gonzalez,Laredo Martin,119.2,190.51,106.59,233.6,530.7,Single-ply,SBD,M
Boys,124.74,5,Efrain Batres,Laredo Martin,120.97,217.72,106.59,204.12,528.44,Single-ply,SBD,M
Boys,124.74,6,Alex Charcas,Laredo Cigarroa,112.26,226.8,113.4,172.37,512.56,Single-ply,SBD,M
Boys,124.74,7,Jose Beltra,Laredo Martin,118.93,201.85,120.2,185.97,508.02,Single-ply,SBD,M
Boys,124.74,8,Jordi Lopez,Laredo United,111.08,151.95,97.52,181.44,430.91,Single-ply,SBD,M
Boys,124.74,9,Reynaldo Martinez,Laredo Johnson,118.84,147.42,86.18,181.44,415.04,Single-ply,SBD,M
Boys,124.74,10,Max Villarreal,Laredo United,115.53,149.69,86.18,174.63,410.5,Single-ply,SBD,M
Boys,124.74+,1,Rudy Flores,Laredo United South,147.92,362.87,240.4,294.84,898.11,Single-ply,SBD,M
Boys,124.74+,2,Eduardo Sanchez,Zapata,148.05,294.84,195.04,258.55,748.43,Single-ply,SBD,M
Boys,124.74+,3,Ruben Hinojosa,Roma,136.35,272.16,158.76,249.48,680.39,Single-ply,SBD,M
Boys,124.74+,4,Jose Salvador,Laredo United South,138.35,199.58,154.22,208.65,562.45,Single-ply,SBD,M
Boys,124.74+,5,Eric Gonzalez #7,Laredo Johnson,139.62,185.97,104.33,188.24,478.54,Single-ply,SBD,M
Boys,124.74+,6,Juan Vieyca,Laredo Johnson,138.44,183.7,106.59,185.97,476.27,Single-ply,SBD,M
Boys,124.74+,7,Jacob Reyna,Laredo Cigarroa,126.69,165.56,104.33,192.78,462.66,Single-ply,SBD,M
Boys,124.74+,8,Marco Fuentes,Laredo Martin,132.27,174.63,81.65,192.78,449.06,Single-ply,SBD,M
Boys,124.74+,DQ,Manuel Medina,Zapata,132.99,,,,,Single-ply,SBD,M
